starting vacuum...end.
transaction type: <builtin: TPC-B (sort of)>
scaling factor: 300
query mode: simple
number of clients: 1
number of threads: 1
duration: 1800 s
number of transactions actually processed: 3851247
latency average: 0.467 ms
tps = 2139.581462 (including connections establishing)
tps = 2139.582790 (excluding connections establishing)
