 checkpoints_timed | checkpoints_req | checkpoint_write_time | checkpoint_sync_time | buffers_checkpoint | buffers_clean | maxwritten_clean | buffers_backend | buffers_backend_fsync | buffers_alloc |          stats_reset          
-------------------+-----------------+-----------------------+----------------------+--------------------+---------------+------------------+-----------------+-----------------------+---------------+-------------------------------
                24 |              18 |               5774462 |                 3603 |            1568505 |        220977 |             2012 |          683408 |                     0 |        594636 | 2016-07-13 17:24:46.660707+02
(1 row)

