starting vacuum...end.
transaction type: <builtin: TPC-B (sort of)>
scaling factor: 1500
query mode: simple
number of clients: 1
number of threads: 1
duration: 1800 s
number of transactions actually processed: 1927526
latency average: 0.934 ms
tps = 1070.847633 (including connections establishing)
tps = 1070.848365 (excluding connections establishing)
