starting vacuum...end.
transaction type: <builtin: TPC-B (sort of)>
scaling factor: 30
query mode: simple
number of clients: 1
number of threads: 1
duration: 1800 s
number of transactions actually processed: 3828442
latency average: 0.470 ms
tps = 2126.911748 (including connections establishing)
tps = 2126.913139 (excluding connections establishing)
