 datid |  datname  | numbackends | xact_commit | xact_rollback | blks_read |  blks_hit  | tup_returned | tup_fetched | tup_inserted | tup_updated | tup_deleted | conflicts | temp_files | temp_bytes | deadlocks | blk_read_time | blk_write_time |          stats_reset          
-------+-----------+-------------+-------------+---------------+-----------+------------+--------------+-------------+--------------+-------------+-------------+-----------+------------+------------+-----------+---------------+----------------+-------------------------------
 12406 | postgres  |           1 |         291 |             0 |        93 |      11673 |       119210 |        3072 |            0 |           0 |           0 |         0 |          0 |          0 |         0 |             0 |              0 | 2016-08-16 21:11:38.620657+02
 16384 | pgbench   |           0 |   180362470 |             0 |    325675 | 1158719025 |    454954793 |   224202790 |     17746614 |    44239359 |           0 |         0 |          0 |          0 |         0 |             0 |              0 | 2016-08-16 21:11:38.881537+02
     1 | template1 |           0 |           0 |             0 |         0 |          0 |            0 |           0 |            0 |           0 |           0 |         0 |          0 |          0 |         0 |             0 |              0 | 
 12405 | template0 |           0 |           0 |             0 |         0 |          0 |            0 |           0 |            0 |           0 |           0 |         0 |          0 |          0 |         0 |             0 |              0 | 
(4 rows)

