 checkpoints_timed | checkpoints_req | checkpoint_write_time | checkpoint_sync_time | buffers_checkpoint | buffers_clean | maxwritten_clean | buffers_backend | buffers_backend_fsync | buffers_alloc |          stats_reset          
-------------------+-----------------+-----------------------+----------------------+--------------------+---------------+------------------+-----------------+-----------------------+---------------+-------------------------------
                 9 |               8 |               2167404 |                  978 |             536020 |         52952 |              464 |          345694 |                     0 |        255698 | 2016-08-16 21:10:36.713062+02
(1 row)

