 checkpoints_timed | checkpoints_req | checkpoint_write_time | checkpoint_sync_time | buffers_checkpoint | buffers_clean | maxwritten_clean | buffers_backend | buffers_backend_fsync | buffers_alloc |          stats_reset          
-------------------+-----------------+-----------------------+----------------------+--------------------+---------------+------------------+-----------------+-----------------------+---------------+-------------------------------
                 1 |               3 |                  4124 |                   30 |               2124 |             0 |                0 |          145534 |                     0 |         57759 | 2016-07-17 14:49:46.119585+02
(1 row)

