 checkpoints_timed | checkpoints_req | checkpoint_write_time | checkpoint_sync_time | buffers_checkpoint | buffers_clean | maxwritten_clean | buffers_backend | buffers_backend_fsync | buffers_alloc |          stats_reset          
-------------------+-----------------+-----------------------+----------------------+--------------------+---------------+------------------+-----------------+-----------------------+---------------+-------------------------------
                 3 |               5 |                724975 |                  146 |             142410 |             0 |                0 |          171431 |                     0 |         83644 | 2016-07-17 14:49:46.119585+02
(1 row)

