 datid |  datname  | numbackends | xact_commit | xact_rollback | blks_read |  blks_hit  | tup_returned | tup_fetched | tup_inserted | tup_updated | tup_deleted | conflicts | temp_files | temp_bytes | deadlocks | blk_read_time | blk_write_time |          stats_reset          
-------+-----------+-------------+-------------+---------------+-----------+------------+--------------+-------------+--------------+-------------+-------------+-----------+------------+------------+-----------+---------------+----------------+-------------------------------
 12406 | postgres  |           1 |         397 |             0 |       169 |      15570 |       163656 |        3995 |            0 |           0 |           0 |         0 |          0 |          0 |         0 |             0 |              0 | 2016-08-13 17:57:56.390348+02
 16384 | pgbench   |           0 |   197785843 |             0 |    443360 | 1657741315 |    708585302 |   288705008 |     33429498 |    91288458 |           0 |         0 |          0 |          0 |         0 |             0 |              0 | 2016-08-13 17:57:56.646317+02
     1 | template1 |           0 |           0 |             0 |         0 |          0 |            0 |           0 |            0 |           0 |           0 |         0 |          0 |          0 |         0 |             0 |              0 | 
 12405 | template0 |           0 |           0 |             0 |         0 |          0 |            0 |           0 |            0 |           0 |           0 |         0 |          0 |          0 |         0 |             0 |              0 | 
(4 rows)

