 datid |  datname  | numbackends | xact_commit | xact_rollback | blks_read |  blks_hit  | tup_returned | tup_fetched | tup_inserted | tup_updated | tup_deleted | conflicts | temp_files | temp_bytes | deadlocks | blk_read_time | blk_write_time |          stats_reset          
-------+-----------+-------------+-------------+---------------+-----------+------------+--------------+-------------+--------------+-------------+-------------+-----------+------------+------------+-----------+---------------+----------------+-------------------------------
 12406 | postgres  |           1 |         931 |             0 |       255 |      35566 |       385995 |        8717 |            0 |           0 |           0 |         0 |          0 |          0 |         0 |             0 |              0 | 2016-08-11 15:27:10.988438+02
 16384 | pgbench   |           0 |   466629074 |             0 |    753669 | 4104338721 |   1782866826 |   694284637 |     78969360 |   227910135 |           0 |         0 |          0 |          0 |         0 |             0 |              0 | 2016-08-11 15:27:11.243306+02
     1 | template1 |           0 |           0 |             0 |         0 |          0 |            0 |           0 |            0 |           0 |           0 |         0 |          0 |          0 |         0 |             0 |              0 | 
 12405 | template0 |           0 |           0 |             0 |         0 |          0 |            0 |           0 |            0 |           0 |           0 |         0 |          0 |          0 |         0 |             0 |              0 | 
(4 rows)

