starting vacuum...end.
transaction type: <builtin: TPC-B (sort of)>
scaling factor: 30
query mode: simple
number of clients: 4
number of threads: 1
duration: 1800 s
number of transactions actually processed: 11281684
latency average: 0.638 ms
tps = 6267.597260 (including connections establishing)
tps = 6267.601062 (excluding connections establishing)
