 checkpoints_timed | checkpoints_req | checkpoint_write_time | checkpoint_sync_time | buffers_checkpoint | buffers_clean | maxwritten_clean | buffers_backend | buffers_backend_fsync | buffers_alloc |          stats_reset          
-------------------+-----------------+-----------------------+----------------------+--------------------+---------------+------------------+-----------------+-----------------------+---------------+-------------------------------
                23 |              18 |               5054385 |                 3101 |            1497576 |        135421 |             1222 |          564423 |                     0 |        470954 | 2016-08-03 22:59:31.517121+02
(1 row)

