starting vacuum...end.
transaction type: <builtin: TPC-B (sort of)>
scaling factor: 300
query mode: simple
number of clients: 1
number of threads: 1
duration: 1800 s
number of transactions actually processed: 3435003
latency average: 0.524 ms
tps = 1908.334497 (including connections establishing)
tps = 1908.335873 (excluding connections establishing)
