 checkpoints_timed | checkpoints_req | checkpoint_write_time | checkpoint_sync_time | buffers_checkpoint | buffers_clean | maxwritten_clean | buffers_backend | buffers_backend_fsync | buffers_alloc |          stats_reset          
-------------------+-----------------+-----------------------+----------------------+--------------------+---------------+------------------+-----------------+-----------------------+---------------+-------------------------------
                16 |              14 |               3607788 |                 6934 |            1064584 |        133314 |             1291 |          466072 |                     0 |        378875 | 2016-07-11 17:37:30.791905+02
(1 row)

