starting vacuum...end.
transaction type: <builtin: TPC-B (sort of)>
scaling factor: 30
query mode: simple
number of clients: 16
number of threads: 1
duration: 1800 s
number of transactions actually processed: 16131815
latency average: 1.785 ms
tps = 8961.961938 (including connections establishing)
tps = 8961.966421 (excluding connections establishing)
