 datid |  datname  | numbackends | xact_commit | xact_rollback | blks_read |  blks_hit  | tup_returned | tup_fetched | tup_inserted | tup_updated | tup_deleted | conflicts | temp_files | temp_bytes | deadlocks | blk_read_time | blk_write_time |          stats_reset          
-------+-----------+-------------+-------------+---------------+-----------+------------+--------------+-------------+--------------+-------------+-------------+-----------+------------+------------+-----------+---------------+----------------+-------------------------------
 12406 | postgres  |           1 |        1501 |             0 |      6394 |      50737 |       624059 |       13690 |            0 |           0 |           0 |         0 |          0 |          0 |         0 |             0 |              0 | 2016-07-24 04:48:56.844516+02
     1 | template1 |           0 |           0 |             0 |         0 |          0 |            0 |           0 |            0 |           0 |           0 |         0 |          0 |          0 |         0 |             0 |              0 | 
 12405 | template0 |           0 |           0 |             0 |         0 |          0 |            0 |           0 |            0 |           0 |           0 |         0 |          0 |          0 |         0 |             0 |              0 | 
 16423 | pgbench   |           0 |   229582640 |             0 | 275807886 | 2958533251 |   1448652974 |   317993444 |     59453180 |    88350602 |           0 |         0 |          1 |  600498176 |         0 |             0 |              0 | 2016-07-24 11:49:20.188836+02
(4 rows)

