 datid |  datname  | numbackends | xact_commit | xact_rollback | blks_read |  blks_hit  | tup_returned | tup_fetched | tup_inserted | tup_updated | tup_deleted | conflicts | temp_files | temp_bytes | deadlocks | blk_read_time | blk_write_time |          stats_reset          
-------+-----------+-------------+-------------+---------------+-----------+------------+--------------+-------------+--------------+-------------+-------------+-----------+------------+------------+-----------+---------------+----------------+-------------------------------
 12406 | postgres  |           1 |        1673 |             0 |      8896 |      54643 |       697085 |       15146 |            0 |           0 |           0 |         0 |          0 |          0 |         0 |             0 |              0 | 2016-08-16 21:11:38.620657+02
     1 | template1 |           0 |           0 |             0 |         0 |          0 |            0 |           0 |            0 |           0 |           0 |         0 |          0 |          0 |         0 |             0 |              0 | 
 12405 | template0 |           0 |           0 |             0 |         0 |          0 |            0 |           0 |            0 |           0 |           0 |         0 |          0 |          0 |         0 |             0 |              0 | 
 16423 | pgbench   |           1 |   313585749 |             2 | 376808736 | 4901976898 |   2463854854 |   468226060 |     81515627 |   154538550 |           0 |         0 |          1 |  600498176 |         0 |             0 |              0 | 2016-08-17 04:12:01.910933+02
(4 rows)

