 checkpoints_timed | checkpoints_req | checkpoint_write_time | checkpoint_sync_time | buffers_checkpoint | buffers_clean | maxwritten_clean | buffers_backend | buffers_backend_fsync | buffers_alloc |          stats_reset          
-------------------+-----------------+-----------------------+----------------------+--------------------+---------------+------------------+-----------------+-----------------------+---------------+-------------------------------
                23 |              17 |               5080532 |                 1654 |            1430290 |        146709 |             1299 |          568130 |                     0 |        476342 | 2016-08-22 01:42:33.204558+02
(1 row)

