starting vacuum...end.
transaction type: <builtin: TPC-B (sort of)>
scaling factor: 1500
query mode: simple
number of clients: 4
number of threads: 1
duration: 1800 s
number of transactions actually processed: 5710893
latency average: 1.261 ms
tps = 3172.703751 (including connections establishing)
tps = 3172.705608 (excluding connections establishing)
