 datid |  datname  | numbackends | xact_commit | xact_rollback | blks_read |  blks_hit  | tup_returned | tup_fetched | tup_inserted | tup_updated | tup_deleted | conflicts | temp_files | temp_bytes | deadlocks | blk_read_time | blk_write_time |          stats_reset          
-------+-----------+-------------+-------------+---------------+-----------+------------+--------------+-------------+--------------+-------------+-------------+-----------+------------+------------+-----------+---------------+----------------+-------------------------------
 12406 | postgres  |           1 |         875 |             0 |       221 |      33431 |       364152 |        8154 |            0 |           0 |           0 |         0 |          0 |          0 |         0 |             0 |              0 | 2016-08-17 19:27:19.619593+02
 16384 | pgbench   |           0 |   437174509 |             0 |    826209 | 4276997490 |   1914667024 |   687076481 |     86363583 |   250092735 |           0 |         0 |          0 |          0 |         0 |             0 |              0 | 2016-08-17 19:27:19.876367+02
     1 | template1 |           0 |           0 |             0 |         0 |          0 |            0 |           0 |            0 |           0 |           0 |         0 |          0 |          0 |         0 |             0 |              0 | 
 12405 | template0 |           0 |           0 |             0 |         0 |          0 |            0 |           0 |            0 |           0 |           0 |         0 |          0 |          0 |         0 |             0 |              0 | 
(4 rows)

