 checkpoints_timed | checkpoints_req | checkpoint_write_time | checkpoint_sync_time | buffers_checkpoint | buffers_clean | maxwritten_clean | buffers_backend | buffers_backend_fsync | buffers_alloc |          stats_reset          
-------------------+-----------------+-----------------------+----------------------+--------------------+---------------+------------------+-----------------+-----------------------+---------------+-------------------------------
                22 |              18 |               5052355 |                 9401 |            1495362 |        197407 |             1793 |          611540 |                     0 |        521956 | 2016-08-17 19:26:15.090433+02
(1 row)

