 datid |  datname  | numbackends | xact_commit | xact_rollback | blks_read | blks_hit | tup_returned | tup_fetched | tup_inserted | tup_updated | tup_deleted | conflicts | temp_files | temp_bytes | deadlocks | blk_read_time | blk_write_time |          stats_reset          
-------+-----------+-------------+-------------+---------------+-----------+----------+--------------+-------------+--------------+-------------+-------------+-----------+------------+------------+-----------+---------------+----------------+-------------------------------
 12406 | postgres  |           1 |        2081 |             0 |     14081 |    64784 |       865166 |       18803 |            0 |           0 |           0 |         0 |          0 |          0 |         0 |             0 |              0 | 2016-07-17 14:50:57.862894+02
     1 | template1 |           0 |           0 |             0 |         0 |        0 |            0 |           0 |            0 |           0 |           0 |         0 |          0 |          0 |         0 |             0 |              0 | 
 12405 | template0 |           0 |           0 |             0 |         0 |        0 |            0 |           0 |            0 |           0 |           0 |         0 |          0 |          0 |         0 |             0 |              0 | 
 16462 | pgbench   |           0 |    15116134 |             0 |  34987633 | 50565824 |    165177175 |    15117908 |    150016594 |          10 |           0 |         0 |          3 | 3002441728 |         0 |             0 |              0 | 2016-07-18 04:52:33.657014+02
(4 rows)

