 datid |  datname  | numbackends | xact_commit | xact_rollback | blks_read | blks_hit  | tup_returned | tup_fetched | tup_inserted | tup_updated | tup_deleted | conflicts | temp_files | temp_bytes | deadlocks | blk_read_time | blk_write_time |          stats_reset          
-------+-----------+-------------+-------------+---------------+-----------+-----------+--------------+-------------+--------------+-------------+-------------+-----------+------------+------------+-----------+---------------+----------------+-------------------------------
 12406 | postgres  |           1 |        1183 |             0 |      2454 |     42758 |       490721 |       10921 |            0 |           0 |           0 |         0 |          0 |          0 |         0 |             0 |              0 | 2016-07-11 17:39:41.225333+02
     1 | template1 |           0 |           0 |             0 |         0 |         0 |            0 |           0 |            0 |           0 |           0 |         0 |          0 |          0 |         0 |             0 |              0 | 
 12405 | template0 |           0 |           0 |             0 |         0 |         0 |            0 |           0 |            0 |           0 |           0 |         0 |          0 |          0 |         0 |             0 |              0 | 
 16423 | pgbench   |           0 |   111550767 |             0 | 133584468 | 555694921 |    191714128 |   122269757 |     33572922 |    10708888 |           0 |         0 |          1 |  600498176 |         0 |             0 |              0 | 2016-07-12 00:40:05.500462+02
(4 rows)

