starting vacuum...end.
transaction type: <builtin: select only>
scaling factor: 30
query mode: simple
number of clients: 4
number of threads: 1
duration: 900 s
number of transactions actually processed: 51174129
latency average: 0.070 ms
tps = 56860.134425 (including connections establishing)
tps = 56860.198472 (excluding connections establishing)
