 checkpoints_timed | checkpoints_req | checkpoint_write_time | checkpoint_sync_time | buffers_checkpoint | buffers_clean | maxwritten_clean | buffers_backend | buffers_backend_fsync | buffers_alloc |          stats_reset          
-------------------+-----------------+-----------------------+----------------------+--------------------+---------------+------------------+-----------------+-----------------------+---------------+-------------------------------
                11 |              10 |               2169001 |                 1301 |             658274 |        108311 |             1045 |          362335 |                     0 |        275985 | 2016-07-15 11:13:12.598738+02
(1 row)

