starting vacuum...end.
transaction type: <builtin: TPC-B (sort of)>
scaling factor: 300
query mode: simple
number of clients: 1
number of threads: 1
duration: 1800 s
number of transactions actually processed: 3482631
latency average: 0.517 ms
tps = 1934.793756 (including connections establishing)
tps = 1934.795086 (excluding connections establishing)
