 datid |  datname  | numbackends | xact_commit | xact_rollback | blks_read | blks_hit  | tup_returned | tup_fetched | tup_inserted | tup_updated | tup_deleted | conflicts | temp_files | temp_bytes | deadlocks | blk_read_time | blk_write_time |          stats_reset          
-------+-----------+-------------+-------------+---------------+-----------+-----------+--------------+-------------+--------------+-------------+-------------+-----------+------------+------------+-----------+---------------+----------------+-------------------------------
 12406 | postgres  |           1 |        2251 |             0 |     15952 |     69252 |       937214 |       20248 |            0 |           0 |           0 |         0 |          0 |          0 |         0 |             0 |              0 | 2016-08-11 15:27:10.988438+02
     1 | template1 |           0 |           0 |             0 |         0 |         0 |            0 |           0 |            0 |           0 |           0 |         0 |          0 |          0 |         0 |             0 |              0 | 
 12405 | template0 |           0 |           0 |             0 |         0 |         0 |            0 |           0 |            0 |           0 |           0 |         0 |          0 |          0 |         0 |             0 |              0 | 
 16462 | pgbench   |           0 |    44155901 |             1 |  88494302 | 297246999 |    230091607 |    66417898 |    157429911 |    22240559 |           0 |         0 |          3 | 3002441728 |         0 |             0 |              0 | 2016-08-12 05:28:41.192123+02
(4 rows)

