starting vacuum...end.
transaction type: <builtin: select only>
scaling factor: 1500
query mode: simple
number of clients: 16
number of threads: 1
duration: 900 s
number of transactions actually processed: 30349977
latency average: 0.474 ms
tps = 33722.018165 (including connections establishing)
tps = 33722.055720 (excluding connections establishing)
