 checkpoints_timed | checkpoints_req | checkpoint_write_time | checkpoint_sync_time | buffers_checkpoint | buffers_clean | maxwritten_clean | buffers_backend | buffers_backend_fsync | buffers_alloc |         stats_reset          
-------------------+-----------------+-----------------------+----------------------+--------------------+---------------+------------------+-----------------+-----------------------+---------------+------------------------------
                24 |               3 |              16554956 |                  324 |            1982960 |        576353 |             1131 |         1441424 |                     0 |       1167850 | 2016-08-05 19:13:13.66971+02
(1 row)

