starting vacuum...end.
transaction type: <builtin: select only>
scaling factor: 30
query mode: simple
number of clients: 16
number of threads: 1
duration: 900 s
number of transactions actually processed: 51781830
latency average: 0.278 ms
tps = 57534.508763 (including connections establishing)
tps = 57534.565554 (excluding connections establishing)
