 checkpoints_timed | checkpoints_req | checkpoint_write_time | checkpoint_sync_time | buffers_checkpoint | buffers_clean | maxwritten_clean | buffers_backend | buffers_backend_fsync | buffers_alloc |          stats_reset          
-------------------+-----------------+-----------------------+----------------------+--------------------+---------------+------------------+-----------------+-----------------------+---------------+-------------------------------
                23 |              18 |               5053893 |                 4031 |            1465685 |        216515 |             2090 |          603032 |                     0 |        515903 | 2016-07-15 11:13:12.598738+02
(1 row)

