 datid |  datname  | numbackends | xact_commit | xact_rollback | blks_read | blks_hit  | tup_returned | tup_fetched | tup_inserted | tup_updated | tup_deleted | conflicts | temp_files | temp_bytes | deadlocks | blk_read_time | blk_write_time |          stats_reset          
-------+-----------+-------------+-------------+---------------+-----------+-----------+--------------+-------------+--------------+-------------+-------------+-----------+------------+------------+-----------+---------------+----------------+-------------------------------
 12406 | postgres  |           1 |        2399 |             0 |     17836 |     72948 |       998504 |       21572 |            0 |           0 |           0 |         0 |          0 |          0 |         0 |             0 |              0 | 2016-08-23 00:08:15.036354+02
     1 | template1 |           0 |           0 |             0 |         0 |         0 |            0 |           0 |            0 |           0 |           0 |         0 |          0 |          0 |         0 |             0 |              0 | 
 12405 | template0 |           0 |           0 |             0 |         0 |         0 |            0 |           0 |            0 |           0 |           0 |         0 |          0 |          0 |         0 |             0 |              0 | 
 16462 | pgbench   |           0 |    87772193 |             1 | 169194100 | 827252763 |    433516335 |   143531671 |    168585162 |    55706633 |           0 |         0 |          3 | 3002441728 |         0 |             0 |              0 | 2016-08-23 14:10:52.181195+02
(4 rows)

