starting vacuum...end.
transaction type: <builtin: select only>
scaling factor: 1500
query mode: simple
number of clients: 4
number of threads: 1
duration: 900 s
number of transactions actually processed: 6708148
latency average: 0.537 ms
tps = 7453.442730 (including connections establishing)
tps = 7453.450976 (excluding connections establishing)
