 datid |  datname  | numbackends | xact_commit | xact_rollback | blks_read | blks_hit | tup_returned | tup_fetched | tup_inserted | tup_updated | tup_deleted | conflicts | temp_files | temp_bytes | deadlocks | blk_read_time | blk_write_time |          stats_reset          
-------+-----------+-------------+-------------+---------------+-----------+----------+--------------+-------------+--------------+-------------+-------------+-----------+------------+------------+-----------+---------------+----------------+-------------------------------
 12406 | postgres  |           1 |        1001 |             0 |       207 |    38173 |       414652 |        9325 |            0 |           0 |           0 |         0 |          0 |          0 |         0 |             0 |              0 | 2016-08-15 15:43:59.944599+02
     1 | template1 |           0 |           0 |             0 |         0 |        0 |            0 |           0 |            0 |           0 |           0 |         0 |          0 |          0 |         0 |             0 |              0 | 
 12405 | template0 |           0 |           0 |             0 |         0 |        0 |            0 |           0 |            0 |           0 |           0 |         0 |          0 |          0 |         0 |             0 |              0 | 
 16423 | pgbench   |           0 |          32 |             0 |   1501492 |   501750 |     30007923 |        1010 |     30003394 |           1 |           0 |         0 |          1 |  600498176 |         0 |             0 |              0 | 2016-08-15 22:44:23.461064+02
(4 rows)

