 datid |  datname  | numbackends | xact_commit | xact_rollback | blks_read |  blks_hit  | tup_returned | tup_fetched | tup_inserted | tup_updated | tup_deleted | conflicts | temp_files | temp_bytes | deadlocks | blk_read_time | blk_write_time |          stats_reset          
-------+-----------+-------------+-------------+---------------+-----------+------------+--------------+-------------+--------------+-------------+-------------+-----------+------------+------------+-----------+---------------+----------------+-------------------------------
 12406 | postgres  |           1 |        1781 |             0 |     10051 |      57530 |       742509 |       16080 |            0 |           0 |           0 |         0 |          0 |          0 |         0 |             0 |              0 | 2016-08-23 00:08:15.036354+02
     1 | template1 |           0 |           0 |             0 |         0 |          0 |            0 |           0 |            0 |           0 |           0 |         0 |          0 |          0 |         0 |             0 |              0 | 
 12405 | template0 |           0 |           0 |             0 |         0 |          0 |            0 |           0 |            0 |           0 |           0 |         0 |          0 |          0 |         0 |             0 |              0 | 
 16423 | pgbench   |           0 |   327059901 |             1 | 393433414 | 5370378032 |   2752524781 |   495132241 |     85989771 |   167961325 |           0 |         0 |          1 |  600498176 |         0 |             0 |              0 | 2016-08-23 07:09:14.723385+02
(4 rows)

