starting vacuum...end.
transaction type: <builtin: TPC-B (sort of)>
scaling factor: 1500
query mode: simple
number of clients: 16
number of threads: 1
duration: 1800 s
number of transactions actually processed: 11216643
latency average: 2.568 ms
tps = 6231.353005 (including connections establishing)
tps = 6231.356443 (excluding connections establishing)
