 datid |  datname  | numbackends | xact_commit | xact_rollback | blks_read | blks_hit  | tup_returned | tup_fetched | tup_inserted | tup_updated | tup_deleted | conflicts | temp_files | temp_bytes | deadlocks | blk_read_time | blk_write_time |          stats_reset          
-------+-----------+-------------+-------------+---------------+-----------+-----------+--------------+-------------+--------------+-------------+-------------+-----------+------------+------------+-----------+---------------+----------------+-------------------------------
 12406 | postgres  |           1 |        2361 |             0 |     17440 |     71875 |       983616 |       21193 |            0 |           0 |           0 |         0 |          0 |          0 |         0 |             0 |              0 | 2016-07-21 15:44:34.744703+02
     1 | template1 |           0 |           0 |             0 |         0 |         0 |            0 |           0 |            0 |           0 |           0 |         0 |          0 |          0 |         0 |             0 |              0 | 
 12405 | template0 |           0 |           0 |             0 |         0 |         0 |            0 |           0 |            0 |           0 |           0 |         0 |          0 |          0 |         0 |             0 |              0 | 
 16462 | pgbench   |           1 |    83779560 |             0 | 161822083 | 803622448 |    424276816 |   139051229 |    168423060 |    55220305 |           0 |         0 |          3 | 3002441728 |         0 |             0 |              0 | 2016-07-22 05:46:04.564323+02
(4 rows)

