 datid |  datname  | numbackends | xact_commit | xact_rollback | blks_read | blks_hit  | tup_returned | tup_fetched | tup_inserted | tup_updated | tup_deleted | conflicts | temp_files | temp_bytes | deadlocks | blk_read_time | blk_write_time |          stats_reset          
-------+-----------+-------------+-------------+---------------+-----------+-----------+--------------+-------------+--------------+-------------+-------------+-----------+------------+------------+-----------+---------------+----------------+-------------------------------
 12406 | postgres  |           1 |         257 |             0 |       157 |     10357 |       104431 |        2800 |            0 |           0 |           0 |         0 |          0 |          0 |         0 |             0 |              0 | 2016-08-11 15:27:10.988438+02
 16384 | pgbench   |           0 |   117863958 |             0 |    331166 | 953093812 |    431155763 |   162966952 |     18159483 |    45477958 |           0 |         0 |          0 |          0 |         0 |             0 |              0 | 2016-08-11 15:27:11.243306+02
     1 | template1 |           0 |           0 |             0 |         0 |         0 |            0 |           0 |            0 |           0 |           0 |         0 |          0 |          0 |         0 |             0 |              0 | 
 12405 | template0 |           0 |           0 |             0 |         0 |         0 |            0 |           0 |            0 |           0 |           0 |         0 |          0 |          0 |         0 |             0 |              0 | 
(4 rows)

