 checkpoints_timed | checkpoints_req | checkpoint_write_time | checkpoint_sync_time | buffers_checkpoint | buffers_clean | maxwritten_clean | buffers_backend | buffers_backend_fsync | buffers_alloc |          stats_reset          
-------------------+-----------------+-----------------------+----------------------+--------------------+---------------+------------------+-----------------+-----------------------+---------------+-------------------------------
                43 |              36 |              10830309 |                 3561 |            2307222 |       6983091 |            60509 |        47091234 |                     0 |     389834270 | 2016-08-16 21:10:36.713062+02
(1 row)

