 datid |  datname  | numbackends | xact_commit | xact_rollback | blks_read |  blks_hit  | tup_returned | tup_fetched | tup_inserted | tup_updated | tup_deleted | conflicts | temp_files | temp_bytes | deadlocks | blk_read_time | blk_write_time |          stats_reset          
-------+-----------+-------------+-------------+---------------+-----------+------------+--------------+-------------+--------------+-------------+-------------+-----------+------------+------------+-----------+---------------+----------------+-------------------------------
 12406 | postgres  |           1 |         507 |             0 |       165 |      19764 |       208211 |        5025 |            0 |           0 |           0 |         0 |          0 |          0 |         0 |             0 |              0 | 2016-08-01 03:46:36.343338+02
 16384 | pgbench   |           0 |   252238307 |             0 |    464553 | 1899306060 |    745540426 |   353186853 |     36761072 |   101283563 |           0 |         0 |          0 |          0 |         0 |             0 |              0 | 2016-08-01 03:46:36.594494+02
     1 | template1 |           0 |           0 |             0 |         0 |          0 |            0 |           0 |            0 |           0 |           0 |         0 |          0 |          0 |         0 |             0 |              0 | 
 12405 | template0 |           0 |           0 |             0 |         0 |          0 |            0 |           0 |            0 |           0 |           0 |         0 |          0 |          0 |         0 |             0 |              0 | 
(4 rows)

