 datid |  datname  | numbackends | xact_commit | xact_rollback | blks_read | blks_hit  | tup_returned | tup_fetched | tup_inserted | tup_updated | tup_deleted | conflicts | temp_files | temp_bytes | deadlocks | blk_read_time | blk_write_time |          stats_reset          
-------+-----------+-------------+-------------+---------------+-----------+-----------+--------------+-------------+--------------+-------------+-------------+-----------+------------+------------+-----------+---------------+----------------+-------------------------------
 12406 | postgres  |           1 |        2113 |             0 |     14762 |     65365 |       877120 |       19149 |            0 |           0 |           0 |         0 |          0 |          0 |         0 |             0 |              0 | 2016-08-18 18:24:22.99612+02
     1 | template1 |           0 |           0 |             0 |         0 |         0 |            0 |           0 |            0 |           0 |           0 |         0 |          0 |          0 |         0 |             0 |              0 | 
 12405 | template0 |           0 |           0 |             0 |         0 |         0 |            0 |           0 |            0 |           0 |           0 |         0 |          0 |          0 |         0 |             0 |              0 | 
 16462 | pgbench   |           0 |    17847827 |             0 |  40079364 | 103472572 |    175992707 |    24190597 |    152127804 |     6333921 |           0 |         0 |          3 | 3002441728 |         0 |             0 |              0 | 2016-08-19 08:25:55.459629+02
(4 rows)

