starting vacuum...end.
transaction type: <builtin: select only>
scaling factor: 1500
query mode: simple
number of clients: 16
number of threads: 1
duration: 900 s
number of transactions actually processed: 12875252
latency average: 1.118 ms
tps = 14305.620018 (including connections establishing)
tps = 14305.633708 (excluding connections establishing)
