starting vacuum...end.
transaction type: <builtin: select only>
scaling factor: 1500
query mode: simple
number of clients: 16
number of threads: 1
duration: 900 s
number of transactions actually processed: 29951030
latency average: 0.481 ms
tps = 33278.836326 (including connections establishing)
tps = 33278.876180 (excluding connections establishing)
