 datid |  datname  | numbackends | xact_commit | xact_rollback | blks_read | blks_hit | tup_returned | tup_fetched | tup_inserted | tup_updated | tup_deleted | conflicts | temp_files | temp_bytes | deadlocks | blk_read_time | blk_write_time |          stats_reset          
-------+-----------+-------------+-------------+---------------+-----------+----------+--------------+-------------+--------------+-------------+-------------+-----------+------------+------------+-----------+---------------+----------------+-------------------------------
 12406 | postgres  |           1 |        2007 |             0 |     12989 |    63086 |       834521 |       18141 |            0 |           0 |           0 |         0 |          0 |          0 |         0 |             0 |              0 | 2016-08-12 17:38:52.705825+02
     1 | template1 |           0 |           0 |             0 |         0 |        0 |            0 |           0 |            0 |           0 |           0 |         0 |          0 |          0 |         0 |             0 |              0 | 
 12405 | template0 |           0 |           0 |             0 |         0 |        0 |            0 |           0 |            0 |           0 |           0 |         0 |          0 |          0 |         0 |             0 |              0 | 
 16462 | pgbench   |           0 |          44 |             0 |   7403860 |  2483220 |    150024251 |        1195 |    150016594 |           8 |           0 |         0 |          3 | 3002441728 |         0 |             0 |              0 | 2016-08-13 07:40:21.534075+02
(4 rows)

