starting vacuum...end.
transaction type: <builtin: select only>
scaling factor: 300
query mode: simple
number of clients: 1
number of threads: 1
duration: 900 s
number of transactions actually processed: 15414643
latency average: 0.058 ms
tps = 17127.378846 (including connections establishing)
tps = 17127.400084 (excluding connections establishing)
