 checkpoints_timed | checkpoints_req | checkpoint_write_time | checkpoint_sync_time | buffers_checkpoint | buffers_clean | maxwritten_clean | buffers_backend | buffers_backend_fsync | buffers_alloc |          stats_reset          
-------------------+-----------------+-----------------------+----------------------+--------------------+---------------+------------------+-----------------+-----------------------+---------------+-------------------------------
                14 |              11 |               2886560 |                 5026 |             796470 |        111030 |             1068 |          393079 |                     0 |        307326 | 2016-08-18 18:23:21.115304+02
(1 row)

