 datid |  datname  | numbackends | xact_commit | xact_rollback | blks_read |  blks_hit  | tup_returned | tup_fetched | tup_inserted | tup_updated | tup_deleted | conflicts | temp_files | temp_bytes | deadlocks | blk_read_time | blk_write_time |          stats_reset          
-------+-----------+-------------+-------------+---------------+-----------+------------+--------------+-------------+--------------+-------------+-------------+-----------+------------+------------+-----------+---------------+----------------+-------------------------------
 12406 | postgres  |           1 |        3050 |             0 |     24225 |      88067 |      1205273 |       27096 |            0 |           0 |           0 |         0 |          0 |          0 |         0 |             0 |              0 | 2016-07-24 04:48:56.844516+02
     1 | template1 |           0 |         376 |             0 |      3451 |       7847 |       107394 |        2814 |            0 |           0 |           0 |         0 |          0 |          0 |         0 |             0 |              0 | 2016-07-24 23:22:22.151078+02
 12405 | template0 |           0 |         376 |             0 |      3444 |       7854 |       107394 |        2814 |            0 |           0 |           0 |         0 |          0 |          0 |         0 |             0 |              0 | 2016-07-24 23:22:52.168548+02
 16462 | pgbench   |           0 |   178742707 |             0 | 338232411 | 1902912329 |    778297387 |   317892174 |    196355354 |   139018785 |           0 |         0 |          3 | 3002441728 |         0 |             0 |              0 | 2016-07-24 18:50:23.339615+02
(4 rows)

