 checkpoints_timed | checkpoints_req | checkpoint_write_time | checkpoint_sync_time | buffers_checkpoint | buffers_clean | maxwritten_clean | buffers_backend | buffers_backend_fsync | buffers_alloc |          stats_reset          
-------------------+-----------------+-----------------------+----------------------+--------------------+---------------+------------------+-----------------+-----------------------+---------------+-------------------------------
                78 |              58 |              18130207 |                 3645 |            2996278 |      18499054 |           170799 |       124515583 |                     0 |     831497901 | 2016-08-23 23:41:15.461504+02
(1 row)

