 datid |  datname  | numbackends | xact_commit | xact_rollback | blks_read | blks_hit  | tup_returned | tup_fetched | tup_inserted | tup_updated | tup_deleted | conflicts | temp_files | temp_bytes | deadlocks | blk_read_time | blk_write_time |          stats_reset          
-------+-----------+-------------+-------------+---------------+-----------+-----------+--------------+-------------+--------------+-------------+-------------+-----------+------------+------------+-----------+---------------+----------------+-------------------------------
 12406 | postgres  |           1 |          41 |             0 |        93 |      2258 |        15430 |         847 |            0 |           0 |           0 |         0 |          0 |          0 |         0 |             0 |              0 | 2016-07-19 17:37:16.767117+02
 16384 | pgbench   |           0 |    45042750 |             0 |    227710 | 180420236 |     48062197 |    45044074 |      3000424 |           2 |           0 |         0 |          0 |          0 |         0 |             0 |              0 | 2016-07-19 17:37:17.022012+02
     1 | template1 |           0 |           0 |             0 |         0 |         0 |            0 |           0 |            0 |           0 |           0 |         0 |          0 |          0 |         0 |             0 |              0 | 
 12405 | template0 |           0 |           0 |             0 |         0 |         0 |            0 |           0 |            0 |           0 |           0 |         0 |          0 |          0 |         0 |             0 |              0 | 
(4 rows)

