 datid |  datname  | numbackends | xact_commit | xact_rollback | blks_read |  blks_hit  | tup_returned | tup_fetched | tup_inserted | tup_updated | tup_deleted | conflicts | temp_files | temp_bytes | deadlocks | blk_read_time | blk_write_time |          stats_reset          
-------+-----------+-------------+-------------+---------------+-----------+------------+--------------+-------------+--------------+-------------+-------------+-----------+------------+------------+-----------+---------------+----------------+-------------------------------
 12406 | postgres  |           1 |        2571 |             0 |     19833 |      77359 |      1071530 |       23028 |            0 |           0 |           0 |         0 |          0 |          0 |         0 |             0 |              0 | 2016-07-19 17:37:16.767117+02
     1 | template1 |           0 |           0 |             0 |         0 |          0 |            0 |           0 |            0 |           0 |           0 |         0 |          0 |          0 |         0 |             0 |              0 | 
 12405 | template0 |           0 |           0 |             0 |         0 |          0 |            0 |           0 |            0 |           0 |           0 |         0 |          0 |          0 |         0 |             0 |              0 | 
 16462 | pgbench   |           0 |   108835060 |             1 | 208526677 | 1048875000 |    487739128 |   187350801 |    176163276 |    78441600 |           0 |         0 |          3 | 3002441728 |         0 |             0 |              0 | 2016-07-20 07:38:47.435031+02
(4 rows)

