 datid |  datname  | numbackends | xact_commit | xact_rollback | blks_read |  blks_hit  | tup_returned | tup_fetched | tup_inserted | tup_updated | tup_deleted | conflicts | temp_files | temp_bytes | deadlocks | blk_read_time | blk_write_time |          stats_reset          
-------+-----------+-------------+-------------+---------------+-----------+------------+--------------+-------------+--------------+-------------+-------------+-----------+------------+------------+-----------+---------------+----------------+-------------------------------
 12406 | postgres  |           1 |        2569 |             0 |     19875 |      77248 |      1070552 |       23017 |            0 |           0 |           0 |         0 |          0 |          0 |         0 |             0 |              0 | 2016-08-03 00:41:39.111831+02
     1 | template1 |           0 |           0 |             0 |         0 |          0 |            0 |           0 |            0 |           0 |           0 |         0 |          0 |          0 |         0 |             0 |              0 | 
 12405 | template0 |           0 |           0 |             0 |         0 |          0 |            0 |           0 |            0 |           0 |           0 |         0 |          0 |          0 |         0 |             0 |              0 | 
 16462 | pgbench   |           0 |   112129132 |             0 | 214800153 | 1152754041 |    536256886 |   194584074 |    177475903 |    82379483 |           0 |         0 |          3 | 3002441728 |         0 |             0 |              0 | 2016-08-03 14:43:04.330526+02
(4 rows)

