 checkpoints_timed | checkpoints_req | checkpoint_write_time | checkpoint_sync_time | buffers_checkpoint | buffers_clean | maxwritten_clean | buffers_backend | buffers_backend_fsync | buffers_alloc |          stats_reset          
-------------------+-----------------+-----------------------+----------------------+--------------------+---------------+------------------+-----------------+-----------------------+---------------+-------------------------------
                 7 |               6 |               1445173 |                  440 |             298195 |         23267 |              227 |          246792 |                     0 |        161617 | 2016-08-12 17:37:46.635081+02
(1 row)

