 datid |  datname  | numbackends | xact_commit | xact_rollback | blks_read |  blks_hit  | tup_returned | tup_fetched | tup_inserted | tup_updated | tup_deleted | conflicts | temp_files | temp_bytes | deadlocks | blk_read_time | blk_write_time |          stats_reset          
-------+-----------+-------------+-------------+---------------+-----------+------------+--------------+-------------+--------------+-------------+-------------+-----------+------------+------------+-----------+---------------+----------------+-------------------------------
 12406 | postgres  |           1 |        2879 |             0 |     22334 |      83575 |      1132259 |       25651 |            0 |           0 |           0 |         0 |          0 |          0 |         0 |             0 |              0 | 2016-07-21 15:44:34.744703+02
     1 | template1 |           0 |         212 |             0 |      1293 |       4347 |        27198 |        1912 |            0 |           0 |           0 |         0 |          0 |          0 |         0 |             0 |              0 | 2016-07-22 10:24:24.3316+02
 12405 | template0 |           0 |         214 |             0 |      1325 |       4384 |        28176 |        1923 |            0 |           0 |           0 |         0 |          0 |          0 |         0 |             0 |              0 | 2016-07-22 10:24:54.369385+02
 16462 | pgbench   |           0 |   151334164 |             0 | 287148478 | 1620254802 |    708633318 |   263539454 |    187381087 |   112095337 |           0 |         0 |          3 | 3002441728 |         0 |             0 |              0 | 2016-07-22 05:46:04.564323+02
(4 rows)

