 checkpoints_timed | checkpoints_req | checkpoint_write_time | checkpoint_sync_time | buffers_checkpoint | buffers_clean | maxwritten_clean | buffers_backend | buffers_backend_fsync | buffers_alloc |          stats_reset          
-------------------+-----------------+-----------------------+----------------------+--------------------+---------------+------------------+-----------------+-----------------------+---------------+-------------------------------
                63 |              51 |              15168508 |                 3455 |            2728428 |      13326983 |           121427 |        98614288 |                     0 |     698559886 | 2016-08-15 15:42:57.197523+02
(1 row)

