starting vacuum...end.
transaction type: <builtin: TPC-B (sort of)>
scaling factor: 30
query mode: simple
number of clients: 1
number of threads: 1
duration: 1800 s
number of transactions actually processed: 4177373
latency average: 0.431 ms
tps = 2320.762118 (including connections establishing)
tps = 2320.764143 (excluding connections establishing)
