[    0.000000] Linux version 3.12.61 (root@bench) (gcc version 4.7.3 (Gentoo 4.7.3-r1 p1.4, pie-0.5.5) ) #1 SMP Tue Aug 23 00:03:26 CEST 2016
[    0.000000] Command line: BOOT_IMAGE=/kernel-3.12.61 root=/dev/sdg3 ro
[    0.000000] e820: BIOS-provided physical RAM map:
[    0.000000] BIOS-e820: [mem 0x0000000000000000-0x000000000009b3ff] usable
[    0.000000] BIOS-e820: [mem 0x000000000009b400-0x000000000009ffff] reserved
[    0.000000] BIOS-e820: [mem 0x00000000000e0000-0x00000000000fffff] reserved
[    0.000000] BIOS-e820: [mem 0x0000000000100000-0x000000001fffffff] usable
[    0.000000] BIOS-e820: [mem 0x0000000020000000-0x00000000201fffff] reserved
[    0.000000] BIOS-e820: [mem 0x0000000020200000-0x000000003fffffff] usable
[    0.000000] BIOS-e820: [mem 0x0000000040000000-0x00000000401fffff] reserved
[    0.000000] BIOS-e820: [mem 0x0000000040200000-0x00000000b677dfff] usable
[    0.000000] BIOS-e820: [mem 0x00000000b677e000-0x00000000b67d4fff] ACPI NVS
[    0.000000] BIOS-e820: [mem 0x00000000b67d5000-0x00000000b6b5bfff] reserved
[    0.000000] BIOS-e820: [mem 0x00000000b6b5c000-0x00000000b6b5efff] ACPI NVS
[    0.000000] BIOS-e820: [mem 0x00000000b6b5f000-0x00000000b6da4fff] reserved
[    0.000000] BIOS-e820: [mem 0x00000000b6da5000-0x00000000b6db5fff] ACPI NVS
[    0.000000] BIOS-e820: [mem 0x00000000b6db6000-0x00000000b6dccfff] reserved
[    0.000000] BIOS-e820: [mem 0x00000000b6dcd000-0x00000000b6dcefff] usable
[    0.000000] BIOS-e820: [mem 0x00000000b6dcf000-0x00000000b6dd6fff] reserved
[    0.000000] BIOS-e820: [mem 0x00000000b6dd7000-0x00000000b6de1fff] ACPI NVS
[    0.000000] BIOS-e820: [mem 0x00000000b6de2000-0x00000000b6e3dfff] reserved
[    0.000000] BIOS-e820: [mem 0x00000000b6e3e000-0x00000000b6e80fff] ACPI NVS
[    0.000000] BIOS-e820: [mem 0x00000000b6e81000-0x00000000b6ffffff] usable
[    0.000000] BIOS-e820: [mem 0x00000000b7800000-0x00000000bf9fffff] reserved
[    0.000000] BIOS-e820: [mem 0x00000000fed1c000-0x00000000fed1ffff] reserved
[    0.000000] BIOS-e820: [mem 0x00000000ff000000-0x00000000ffffffff] reserved
[    0.000000] BIOS-e820: [mem 0x0000000100000000-0x000000023fdfffff] usable
[    0.000000] NX (Execute Disable) protection: active
[    0.000000] SMBIOS 2.6 present.
[    0.000000] DMI: System manufacturer System Product Name/P8Z68-V PRO, BIOS 0501 05/09/2011
[    0.000000] e820: update [mem 0x00000000-0x00000fff] usable ==> reserved
[    0.000000] e820: remove [mem 0x000a0000-0x000fffff] usable
[    0.000000] No AGP bridge found
[    0.000000] e820: last_pfn = 0x23fe00 max_arch_pfn = 0x400000000
[    0.000000] MTRR default type: uncachable
[    0.000000] MTRR fixed ranges enabled:
[    0.000000]   00000-9FFFF write-back
[    0.000000]   A0000-BFFFF uncachable
[    0.000000]   C0000-D3FFF write-protect
[    0.000000]   D4000-E7FFF uncachable
[    0.000000]   E8000-FFFFF write-protect
[    0.000000] MTRR variable ranges enabled:
[    0.000000]   0 base 000000000 mask E00000000 write-back
[    0.000000]   1 base 200000000 mask FC0000000 write-back
[    0.000000]   2 base 0B7800000 mask FFF800000 uncachable
[    0.000000]   3 base 0B8000000 mask FF8000000 uncachable
[    0.000000]   4 base 0C0000000 mask FC0000000 uncachable
[    0.000000]   5 base 23FE00000 mask FFFE00000 uncachable
[    0.000000]   6 disabled
[    0.000000]   7 disabled
[    0.000000]   8 disabled
[    0.000000]   9 disabled
[    0.000000] x86 PAT enabled: cpu 0, old 0x7040600070406, new 0x7010600070106
[    0.000000] e820: update [mem 0xb7800000-0xffffffff] usable ==> reserved
[    0.000000] e820: last_pfn = 0xb7000 max_arch_pfn = 0x400000000
[    0.000000] found SMP MP-table at [mem 0x000fcee0-0x000fceef] mapped at [ffff8800000fcee0]
[    0.000000] Scanning 1 areas for low memory corruption
[    0.000000] Base memory trampoline at [ffff880000095000] 95000 size 24576
[    0.000000] reserving inaccessible SNB gfx pages
[    0.000000] init_memory_mapping: [mem 0x00000000-0x000fffff]
[    0.000000]  [mem 0x00000000-0x000fffff] page 4k
[    0.000000] BRK [0x01ea7000, 0x01ea7fff] PGTABLE
[    0.000000] BRK [0x01ea8000, 0x01ea8fff] PGTABLE
[    0.000000] BRK [0x01ea9000, 0x01ea9fff] PGTABLE
[    0.000000] init_memory_mapping: [mem 0x23fc00000-0x23fdfffff]
[    0.000000]  [mem 0x23fc00000-0x23fdfffff] page 2M
[    0.000000] BRK [0x01eaa000, 0x01eaafff] PGTABLE
[    0.000000] init_memory_mapping: [mem 0x23c000000-0x23fbfffff]
[    0.000000]  [mem 0x23c000000-0x23fbfffff] page 2M
[    0.000000] init_memory_mapping: [mem 0x200000000-0x23bffffff]
[    0.000000]  [mem 0x200000000-0x23bffffff] page 2M
[    0.000000] init_memory_mapping: [mem 0x00100000-0x1fffffff]
[    0.000000]  [mem 0x00100000-0x001fffff] page 4k
[    0.000000]  [mem 0x00200000-0x1fffffff] page 2M
[    0.000000] init_memory_mapping: [mem 0x20200000-0x3fffffff]
[    0.000000]  [mem 0x20200000-0x3fffffff] page 2M
[    0.000000] init_memory_mapping: [mem 0x40200000-0xb677dfff]
[    0.000000]  [mem 0x40200000-0xb65fffff] page 2M
[    0.000000]  [mem 0xb6600000-0xb677dfff] page 4k
[    0.000000] BRK [0x01eab000, 0x01eabfff] PGTABLE
[    0.000000] BRK [0x01eac000, 0x01eacfff] PGTABLE
[    0.000000] init_memory_mapping: [mem 0xb6dcd000-0xb6dcefff]
[    0.000000]  [mem 0xb6dcd000-0xb6dcefff] page 4k
[    0.000000] init_memory_mapping: [mem 0xb6e81000-0xb6ffffff]
[    0.000000]  [mem 0xb6e81000-0xb6ffffff] page 4k
[    0.000000] init_memory_mapping: [mem 0x100000000-0x1ffffffff]
[    0.000000]  [mem 0x100000000-0x1ffffffff] page 2M
[    0.000000] ACPI: RSDP 0x00000000000F0420 00024 (v02 ALASKA)
[    0.000000] ACPI: XSDT 0x00000000B67CA068 0004C (v01 ALASKA A M I    01072009 AMI  00010013)
[    0.000000] ACPI: FACP 0x00000000B67D42D8 000F4 (v04 ALASKA A M I    01072009 AMI  00010013)
[    0.000000] ACPI: DSDT 0x00000000B67CA140 0A198 (v02 ALASKA A M I    00000000 INTL 20051117)
[    0.000000] ACPI: FACS 0x00000000B6DD9F80 00040
[    0.000000] ACPI: APIC 0x00000000B67D43D0 00072 (v03 ALASKA A M I    01072009 AMI  00010013)
[    0.000000] ACPI: SSDT 0x00000000B67D4448 00102 (v01 AMICPU PROC     00000001 MSFT 03000001)
[    0.000000] ACPI: MCFG 0x00000000B67D4550 0003C (v01 ALASKA A M I    01072009 MSFT 00000097)
[    0.000000] ACPI: HPET 0x00000000B67D4590 00038 (v01 ALASKA A M I    01072009 AMI. 00000004)
[    0.000000] ACPI: Local APIC address 0xfee00000
[    0.000000] No NUMA configuration found
[    0.000000] Faking a node at [mem 0x0000000000000000-0x000000023fdfffff]
[    0.000000] Initmem setup node 0 [mem 0x00000000-0x23fdfffff]
[    0.000000]   NODE_DATA [mem 0x23fdf5000-0x23fdf8fff]
[    0.000000]  [ffffea0000000000-ffffea0008ffffff] PMD -> [ffff880237600000-ffff88023f3fffff] on node 0
[    0.000000] Zone ranges:
[    0.000000]   DMA      [mem 0x00001000-0x00ffffff]
[    0.000000]   DMA32    [mem 0x01000000-0xffffffff]
[    0.000000]   Normal   [mem 0x100000000-0x23fdfffff]
[    0.000000] Movable zone start for each node
[    0.000000] Early memory node ranges
[    0.000000]   node   0: [mem 0x00001000-0x0009afff]
[    0.000000]   node   0: [mem 0x00100000-0x1fffffff]
[    0.000000]   node   0: [mem 0x20200000-0x3fffffff]
[    0.000000]   node   0: [mem 0x40200000-0xb677dfff]
[    0.000000]   node   0: [mem 0xb6dcd000-0xb6dcefff]
[    0.000000]   node   0: [mem 0xb6e81000-0xb6ffffff]
[    0.000000]   node   0: [mem 0x100000000-0x23fdfffff]
[    0.000000] On node 0 totalpages: 2056857
[    0.000000]   DMA zone: 64 pages used for memmap
[    0.000000]   DMA zone: 154 pages reserved
[    0.000000]   DMA zone: 3994 pages, LIFO batch:0
[    0.000000]   DMA32 zone: 11604 pages used for memmap
[    0.000000]   DMA32 zone: 742655 pages, LIFO batch:31
[    0.000000]   Normal zone: 20472 pages used for memmap
[    0.000000]   Normal zone: 1310208 pages, LIFO batch:31
[    0.000000] ACPI: PM-Timer IO Port: 0x408
[    0.000000] ACPI: Local APIC address 0xfee00000
[    0.000000] ACPI: LAPIC (acpi_id[0x01] lapic_id[0x00] enabled)
[    0.000000] ACPI: LAPIC (acpi_id[0x02] lapic_id[0x02] enabled)
[    0.000000] ACPI: LAPIC (acpi_id[0x03] lapic_id[0x04] enabled)
[    0.000000] ACPI: LAPIC (acpi_id[0x04] lapic_id[0x06] enabled)
[    0.000000] ACPI: LAPIC_NMI (acpi_id[0xff] high edge lint[0x1])
[    0.000000] ACPI: IOAPIC (id[0x00] address[0xfec00000] gsi_base[0])
[    0.000000] IOAPIC[0]: apic_id 0, version 32, address 0xfec00000, GSI 0-23
[    0.000000] ACPI: INT_SRC_OVR (bus 0 bus_irq 0 global_irq 2 dfl dfl)
[    0.000000] ACPI: INT_SRC_OVR (bus 0 bus_irq 9 global_irq 9 high level)
[    0.000000] ACPI: IRQ0 used by override.
[    0.000000] ACPI: IRQ2 used by override.
[    0.000000] ACPI: IRQ9 used by override.
[    0.000000] Using ACPI (MADT) for SMP configuration information
[    0.000000] ACPI: HPET id: 0x8086a701 base: 0xfed00000
[    0.000000] smpboot: Allowing 4 CPUs, 0 hotplug CPUs
[    0.000000] nr_irqs_gsi: 40
[    0.000000] e820: [mem 0xbfa00000-0xfed1bfff] available for PCI devices
[    0.000000] setup_percpu: NR_CPUS:64 nr_cpumask_bits:64 nr_cpu_ids:4 nr_node_ids:1
[    0.000000] PERCPU: Embedded 26 pages/cpu @ffff88023fa00000 s74496 r8192 d23808 u524288
[    0.000000] pcpu-alloc: s74496 r8192 d23808 u524288 alloc=1*2097152
[    0.000000] pcpu-alloc: [0] 0 1 2 3 
[    0.000000] Built 1 zonelists in Zone order, mobility grouping on.  Total pages: 2024563
[    0.000000] Policy zone: Normal
[    0.000000] Kernel command line: BOOT_IMAGE=/kernel-3.12.61 root=/dev/sdg3 ro
[    0.000000] PID hash table entries: 4096 (order: 3, 32768 bytes)
[    0.000000] xsave: enabled xstate_bv 0x7, cntxt size 0x340
[    0.000000] Checking aperture...
[    0.000000] No AGP bridge found
[    0.000000] Memory: 8016092K/8227428K available (7157K kernel code, 746K rwdata, 2416K rodata, 964K init, 972K bss, 211336K reserved)
[    0.000000] SLUB: HWalign=64, Order=0-3, MinObjects=0, CPUs=4, Nodes=1
[    0.000000] Hierarchical RCU implementation.
[    0.000000] 	RCU restricting CPUs from NR_CPUS=64 to nr_cpu_ids=4.
[    0.000000] NR_IRQS:4352 nr_irqs:712 16
[    0.000000] Console: colour VGA+ 80x25
[    0.000000] console [tty0] enabled
[    0.000000] hpet clockevent registered
[    0.000000] tsc: Fast TSC calibration using PIT
[    0.001000] tsc: Detected 3300.015 MHz processor
[    0.000001] Calibrating delay loop (skipped), value calculated using timer frequency.. 6600.03 BogoMIPS (lpj=3300015)
[    0.000139] pid_max: default: 32768 minimum: 301
[    0.000220] Security Framework initialized
[    0.000631] Dentry cache hash table entries: 1048576 (order: 11, 8388608 bytes)
[    0.001943] Inode-cache hash table entries: 524288 (order: 10, 4194304 bytes)
[    0.002517] Mount-cache hash table entries: 256
[    0.002700] CPU: Physical Processor ID: 0
[    0.002767] CPU: Processor Core ID: 0
[    0.002835] ENERGY_PERF_BIAS: Set to 'normal', was 'performance'
               ENERGY_PERF_BIAS: View and update with x86_energy_perf_policy(8)
[    0.002949] mce: CPU supports 9 MCE banks
[    0.003025] CPU0: Thermal monitoring enabled (TM1)
[    0.003097] process: using mwait in idle threads
[    0.003166] Last level iTLB entries: 4KB 512, 2MB 0, 4MB 0
               Last level dTLB entries: 4KB 512, 2MB 32, 4MB 32
               tlb_flushall_shift: 5
[    0.003388] Freeing SMP alternatives memory: 24K (ffffffff81dad000 - ffffffff81db3000)
[    0.003484] ACPI: Core revision 20130725
[    0.005513] ACPI: All ACPI Tables successfully acquired
[    0.108751] ..TIMER: vector=0x30 apic1=0 pin1=2 apic2=-1 pin2=-1
[    0.118815] smpboot: CPU0: Intel(R) Core(TM) i5-2500K CPU @ 3.30GHz (fam: 06, model: 2a, stepping: 07)
[    0.119028] TSC deadline timer enabled
[    0.119034] Performance Events: PEBS fmt1+, 16-deep LBR, SandyBridge events, full-width counters, Intel PMU driver.
[    0.119331] perf_event_intel: PEBS disabled due to CPU errata, please upgrade microcode
[    0.119428] ... version:                3
[    0.119494] ... bit width:              48
[    0.119562] ... generic registers:      8
[    0.119628] ... value mask:             0000ffffffffffff
[    0.119696] ... max period:             0000ffffffffffff
[    0.119765] ... fixed-purpose events:   3
[    0.119831] ... event mask:             00000007000000ff
[    0.120026] smpboot: Booting Node   0, Processors  #   1 #   2 #   3 OK
[    0.159959] Brought up 4 CPUs
[    0.160028] smpboot: Total of 4 processors activated (26400.12 BogoMIPS)
[    0.162201] devtmpfs: initialized
[    0.162408] kworker/u8:0 (25) used greatest stack depth: 5880 bytes left
[    0.162490] NET: Registered protocol family 16
[    0.162724] cpuidle: using governor ladder
[    0.162791] cpuidle: using governor menu
[    0.162871] ACPI: bus type PCI registered
[    0.162980] PCI: MMCONFIG for domain 0000 [bus 00-3f] at [mem 0xe0000000-0xe3ffffff] (base 0xe0000000)
[    0.163083] PCI: not using MMCONFIG
[    0.163149] PCI: Using configuration type 1 for base access
[    0.166756] bio: create slab <bio-0> at 0
[    0.166909] ACPI: Added _OSI(Module Device)
[    0.166976] ACPI: Added _OSI(Processor Device)
[    0.167044] ACPI: Added _OSI(3.0 _SCP Extensions)
[    0.167113] ACPI: Added _OSI(Processor Aggregator Device)
[    0.167921] ACPI: EC: Look up EC in DSDT
[    0.168626] ACPI: Executed 1 blocks of module-level executable AML code
[    0.170360] ACPI: SSDT 0x00000000B6DD8918 003E0 (v01 AMI    IST      00000001 MSFT 03000001)
[    0.170745] ACPI: Dynamic OEM Table Load:
[    0.170886] ACPI: SSDT 0x0000000000000000 003E0 (v01 AMI    IST      00000001 MSFT 03000001)
[    0.171071] ACPI: SSDT 0x00000000B6DD7D98 000E4 (v01 AMI    CST      00000001 MSFT 03000001)
[    0.171425] ACPI: Dynamic OEM Table Load:
[    0.171565] ACPI: SSDT 0x0000000000000000 000E4 (v01 AMI    CST      00000001 MSFT 03000001)
[    0.172021] ACPI: Interpreter enabled
[    0.172090] ACPI: (supports S0 S5)
[    0.172155] ACPI: Using IOAPIC for interrupt routing
[    0.172239] PCI: MMCONFIG for domain 0000 [bus 00-3f] at [mem 0xe0000000-0xe3ffffff] (base 0xe0000000)
[    0.172370] PCI: MMCONFIG at [mem 0xe0000000-0xe3ffffff] reserved in ACPI motherboard resources
[    0.172530] PCI: Using host bridge windows from ACPI; if necessary, use "pci=nocrs" and report a bug
[    0.172714] ACPI: No dock devices found.
[    0.172964] [Firmware Bug]: ACPI: BIOS _OSI(Linux) query ignored
[    0.177920] ACPI: PCI Root Bridge [PCI0] (domain 0000 [bus 00-ff])
[    0.178084] acpi PNP0A08:00: Requesting ACPI _OSC control (0x1d)
[    0.178282] acpi PNP0A08:00: ACPI _OSC control (0x1c) granted
[    0.178470] acpi PNP0A08:00: ignoring host bridge window [mem 0x000c8000-0x000dffff] (conflicts with Video ROM [mem 0x000c0000-0x000cdbff])
[    0.178574] acpi PNP0A08:00: [Firmware Info]: MMCONFIG for domain 0000 [bus 00-3f] only partially covers this bridge
[    0.178693] PCI host bridge to bus 0000:00
[    0.179219] pci_bus 0000:00: root bus resource [bus 00-ff]
[    0.179290] pci_bus 0000:00: root bus resource [io  0x0000-0x0cf7]
[    0.179360] pci_bus 0000:00: root bus resource [io  0x0d00-0xffff]
[    0.179431] pci_bus 0000:00: root bus resource [mem 0x000a0000-0x000bffff]
[    0.179503] pci_bus 0000:00: root bus resource [mem 0xbfa00000-0xffffffff]
[    0.179579] pci 0000:00:00.0: [8086:0100] type 00 class 0x060000
[    0.179647] pci 0000:00:01.0: [8086:0101] type 01 class 0x060400
[    0.179669] pci 0000:00:01.0: PME# supported from D0 D3hot D3cold
[    0.179720] pci 0000:00:02.0: [8086:0112] type 00 class 0x030000
[    0.179728] pci 0000:00:02.0: reg 0x10: [mem 0xfa400000-0xfa7fffff 64bit]
[    0.179733] pci 0000:00:02.0: reg 0x18: [mem 0xc0000000-0xcfffffff 64bit pref]
[    0.179736] pci 0000:00:02.0: reg 0x20: [io  0xf000-0xf03f]
[    0.179818] pci 0000:00:16.0: [8086:1c3a] type 00 class 0x078000
[    0.179839] pci 0000:00:16.0: reg 0x10: [mem 0xfad29000-0xfad2900f 64bit]
[    0.179909] pci 0000:00:16.0: PME# supported from D0 D3hot D3cold
[    0.179974] pci 0000:00:19.0: [8086:1503] type 00 class 0x020000
[    0.179991] pci 0000:00:19.0: reg 0x10: [mem 0xfad00000-0xfad1ffff]
[    0.179999] pci 0000:00:19.0: reg 0x14: [mem 0xfad28000-0xfad28fff]
[    0.180007] pci 0000:00:19.0: reg 0x18: [io  0xf080-0xf09f]
[    0.180065] pci 0000:00:19.0: PME# supported from D0 D3hot D3cold
[    0.180126] pci 0000:00:1a.0: [8086:1c2d] type 00 class 0x0c0320
[    0.180146] pci 0000:00:1a.0: reg 0x10: [mem 0xfad27000-0xfad273ff]
[    0.180230] pci 0000:00:1a.0: PME# supported from D0 D3hot D3cold
[    0.180293] pci 0000:00:1b.0: [8086:1c20] type 00 class 0x040300
[    0.180307] pci 0000:00:1b.0: reg 0x10: [mem 0xfad20000-0xfad23fff 64bit]
[    0.180369] pci 0000:00:1b.0: PME# supported from D0 D3hot D3cold
[    0.180425] pci 0000:00:1c.0: [8086:1c10] type 01 class 0x060400
[    0.180498] pci 0000:00:1c.0: PME# supported from D0 D3hot D3cold
[    0.180559] pci 0000:00:1c.1: [8086:1c12] type 01 class 0x060400
[    0.180632] pci 0000:00:1c.1: PME# supported from D0 D3hot D3cold
[    0.180692] pci 0000:00:1c.2: [8086:1c14] type 01 class 0x060400
[    0.180766] pci 0000:00:1c.2: PME# supported from D0 D3hot D3cold
[    0.180825] pci 0000:00:1c.3: [8086:1c16] type 01 class 0x060400
[    0.180898] pci 0000:00:1c.3: PME# supported from D0 D3hot D3cold
[    0.180957] pci 0000:00:1c.4: [8086:1c18] type 01 class 0x060400
[    0.181030] pci 0000:00:1c.4: PME# supported from D0 D3hot D3cold
[    0.181251] pci 0000:00:1c.6: [8086:244e] type 01 class 0x060401
[    0.181326] pci 0000:00:1c.6: PME# supported from D0 D3hot D3cold
[    0.181385] pci 0000:00:1c.7: [8086:1c1e] type 01 class 0x060400
[    0.181459] pci 0000:00:1c.7: PME# supported from D0 D3hot D3cold
[    0.181522] pci 0000:00:1d.0: [8086:1c26] type 00 class 0x0c0320
[    0.181542] pci 0000:00:1d.0: reg 0x10: [mem 0xfad26000-0xfad263ff]
[    0.181626] pci 0000:00:1d.0: PME# supported from D0 D3hot D3cold
[    0.181688] pci 0000:00:1f.0: [8086:1c44] type 00 class 0x060100
[    0.181840] pci 0000:00:1f.2: [8086:1c02] type 00 class 0x010601
[    0.181857] pci 0000:00:1f.2: reg 0x10: [io  0xf0d0-0xf0d7]
[    0.181864] pci 0000:00:1f.2: reg 0x14: [io  0xf0c0-0xf0c3]
[    0.181871] pci 0000:00:1f.2: reg 0x18: [io  0xf0b0-0xf0b7]
[    0.181878] pci 0000:00:1f.2: reg 0x1c: [io  0xf0a0-0xf0a3]
[    0.181885] pci 0000:00:1f.2: reg 0x20: [io  0xf060-0xf07f]
[    0.181892] pci 0000:00:1f.2: reg 0x24: [mem 0xfad25000-0xfad257ff]
[    0.181933] pci 0000:00:1f.2: PME# supported from D3hot
[    0.181986] pci 0000:00:1f.3: [8086:1c22] type 00 class 0x0c0500
[    0.182000] pci 0000:00:1f.3: reg 0x10: [mem 0xfad24000-0xfad240ff 64bit]
[    0.182019] pci 0000:00:1f.3: reg 0x20: [io  0xf040-0xf05f]
[    0.182118] pci 0000:01:00.0: [10de:1245] type 00 class 0x030000
[    0.182125] pci 0000:01:00.0: reg 0x10: [mem 0xf8000000-0xf9ffffff]
[    0.182132] pci 0000:01:00.0: reg 0x14: [mem 0xd0000000-0xd7ffffff 64bit pref]
[    0.182140] pci 0000:01:00.0: reg 0x1c: [mem 0xd8000000-0xdbffffff 64bit pref]
[    0.182144] pci 0000:01:00.0: reg 0x24: [io  0xe000-0xe07f]
[    0.182149] pci 0000:01:00.0: reg 0x30: [mem 0xfa000000-0xfa07ffff pref]
[    0.182215] pci 0000:01:00.1: [10de:0bee] type 00 class 0x040300
[    0.182223] pci 0000:01:00.1: reg 0x10: [mem 0xfa080000-0xfa083fff]
[    0.184300] pci 0000:00:01.0: PCI bridge to [bus 01]
[    0.184369] pci 0000:00:01.0:   bridge window [io  0xe000-0xefff]
[    0.184371] pci 0000:00:01.0:   bridge window [mem 0xf8000000-0xfa0fffff]
[    0.184374] pci 0000:00:01.0:   bridge window [mem 0xd0000000-0xdbffffff 64bit pref]
[    0.184429] pci 0000:00:1c.0: PCI bridge to [bus 02]
[    0.184587] pci 0000:03:00.0: [1b21:1042] type 00 class 0x0c0330
[    0.184614] pci 0000:03:00.0: reg 0x10: [mem 0xfac00000-0xfac07fff 64bit]
[    0.184758] pci 0000:03:00.0: PME# supported from D3hot D3cold
[    0.186303] pci 0000:00:1c.1: PCI bridge to [bus 03]
[    0.186376] pci 0000:00:1c.1:   bridge window [mem 0xfac00000-0xfacfffff]
[    0.186436] pci 0000:00:1c.2: PCI bridge to [bus 04]
[    0.186584] pci 0000:05:00.0: [197b:2362] type 00 class 0x010185
[    0.186618] pci 0000:05:00.0: reg 0x10: [io  0xd040-0xd047]
[    0.186634] pci 0000:05:00.0: reg 0x14: [io  0xd030-0xd033]
[    0.186650] pci 0000:05:00.0: reg 0x18: [io  0xd020-0xd027]
[    0.186665] pci 0000:05:00.0: reg 0x1c: [io  0xd010-0xd013]
[    0.186681] pci 0000:05:00.0: reg 0x20: [io  0xd000-0xd00f]
[    0.186696] pci 0000:05:00.0: reg 0x24: [mem 0xfab10000-0xfab101ff]
[    0.186712] pci 0000:05:00.0: reg 0x30: [mem 0x00000000-0x0000ffff pref]
[    0.186773] pci 0000:05:00.0: PME# supported from D3hot
[    0.188303] pci 0000:00:1c.3: PCI bridge to [bus 05]
[    0.188373] pci 0000:00:1c.3:   bridge window [io  0xd000-0xdfff]
[    0.188377] pci 0000:00:1c.3:   bridge window [mem 0xfab00000-0xfabfffff]
[    0.188463] pci 0000:06:00.0: [1b21:1042] type 00 class 0x0c0330
[    0.188491] pci 0000:06:00.0: reg 0x10: [mem 0xfaa00000-0xfaa07fff 64bit]
[    0.188635] pci 0000:06:00.0: PME# supported from D3hot D3cold
[    0.190302] pci 0000:00:1c.4: PCI bridge to [bus 06]
[    0.190374] pci 0000:00:1c.4:   bridge window [mem 0xfaa00000-0xfaafffff]
[    0.190448] pci 0000:07:00.0: [1b21:1080] type 01 class 0x060401
[    0.190581] pci 0000:00:1c.6: PCI bridge to [bus 07-08] (subtractive decode)
[    0.190654] pci 0000:00:1c.6:   bridge window [io  0xc000-0xcfff]
[    0.190658] pci 0000:00:1c.6:   bridge window [mem 0xfa900000-0xfa9fffff]
[    0.190664] pci 0000:00:1c.6:   bridge window [io  0x0000-0x0cf7] (subtractive decode)
[    0.190665] pci 0000:00:1c.6:   bridge window [io  0x0d00-0xffff] (subtractive decode)
[    0.190666] pci 0000:00:1c.6:   bridge window [mem 0x000a0000-0x000bffff] (subtractive decode)
[    0.190667] pci 0000:00:1c.6:   bridge window [mem 0xbfa00000-0xffffffff] (subtractive decode)
[    0.190742] pci 0000:08:02.0: [1106:3044] type 00 class 0x0c0010
[    0.190773] pci 0000:08:02.0: reg 0x10: [mem 0xfa900000-0xfa9007ff]
[    0.190790] pci 0000:08:02.0: reg 0x14: [io  0xc000-0xc07f]
[    0.190918] pci 0000:08:02.0: supports D2
[    0.190920] pci 0000:08:02.0: PME# supported from D2 D3hot D3cold
[    0.191017] pci 0000:07:00.0: PCI bridge to [bus 08] (subtractive decode)
[    0.191096] pci 0000:07:00.0:   bridge window [io  0xc000-0xcfff]
[    0.191102] pci 0000:07:00.0:   bridge window [mem 0xfa900000-0xfa9fffff]
[    0.191111] pci 0000:07:00.0:   bridge window [io  0xc000-0xcfff] (subtractive decode)
[    0.191112] pci 0000:07:00.0:   bridge window [mem 0xfa900000-0xfa9fffff] (subtractive decode)
[    0.191113] pci 0000:07:00.0:   bridge window [??? 0x00000000 flags 0x0] (subtractive decode)
[    0.191115] pci 0000:07:00.0:   bridge window [??? 0x00000000 flags 0x0] (subtractive decode)
[    0.191116] pci 0000:07:00.0:   bridge window [io  0x0000-0x0cf7] (subtractive decode)
[    0.191117] pci 0000:07:00.0:   bridge window [io  0x0d00-0xffff] (subtractive decode)
[    0.191118] pci 0000:07:00.0:   bridge window [mem 0x000a0000-0x000bffff] (subtractive decode)
[    0.191119] pci 0000:07:00.0:   bridge window [mem 0xbfa00000-0xffffffff] (subtractive decode)
[    0.191203] pci 0000:09:00.0: [1b4b:9172] type 00 class 0x010601
[    0.191219] pci 0000:09:00.0: reg 0x10: [io  0xb040-0xb047]
[    0.191232] pci 0000:09:00.0: reg 0x14: [io  0xb030-0xb033]
[    0.191244] pci 0000:09:00.0: reg 0x18: [io  0xb020-0xb027]
[    0.191256] pci 0000:09:00.0: reg 0x1c: [io  0xb010-0xb013]
[    0.191268] pci 0000:09:00.0: reg 0x20: [io  0xb000-0xb00f]
[    0.191281] pci 0000:09:00.0: reg 0x24: [mem 0xfa810000-0xfa8101ff]
[    0.191295] pci 0000:09:00.0: reg 0x30: [mem 0xfa800000-0xfa80ffff pref]
[    0.191352] pci 0000:09:00.0: PME# supported from D3hot
[    0.193301] pci 0000:00:1c.7: PCI bridge to [bus 09]
[    0.193372] pci 0000:00:1c.7:   bridge window [io  0xb000-0xbfff]
[    0.193376] pci 0000:00:1c.7:   bridge window [mem 0xfa800000-0xfa8fffff]
[    0.193755] ACPI: PCI Interrupt Link [LNKA] (IRQs 3 4 5 6 7 10 *11 12 14 15)
[    0.194302] ACPI: PCI Interrupt Link [LNKB] (IRQs 3 4 5 6 7 *10 11 12 14 15)
[    0.194847] ACPI: PCI Interrupt Link [LNKC] (IRQs *3 4 5 6 10 11 12 14 15)
[    0.195357] ACPI: PCI Interrupt Link [LNKD] (IRQs 3 4 5 6 10 *11 12 14 15)
[    0.195864] ACPI: PCI Interrupt Link [LNKE] (IRQs 3 4 6 7 *10 11 12 14 15)
[    0.196374] ACPI: PCI Interrupt Link [LNKF] (IRQs 3 4 *5 6 7 10 11 12 14 15)
[    0.196918] ACPI: PCI Interrupt Link [LNKG] (IRQs 3 *4 5 6 7 10 11 12 14 15)
[    0.197464] ACPI: PCI Interrupt Link [LNKH] (IRQs 3 4 5 6 *7 10 11 12 14 15)
[    0.198053] ACPI: Enabled 1 GPEs in block 00 to 3F
[    0.198198] ACPI: \_SB_.PCI0: notify handler is installed
[    0.198228] Found 1 acpi root devices
[    0.198239] ACPI: EC: GPE = 0x18, I/O: command/status = 0x66, data = 0x62
[    0.198389] vgaarb: device added: PCI:0000:00:02.0,decodes=io+mem,owns=io+mem,locks=none
[    0.198488] vgaarb: device added: PCI:0000:01:00.0,decodes=io+mem,owns=none,locks=none
[    0.198584] vgaarb: loaded
[    0.198648] vgaarb: bridge control possible 0000:01:00.0
[    0.198716] vgaarb: no bridge control possible 0000:00:02.0
[    0.198853] SCSI subsystem initialized
[    0.198969] libata version 3.00 loaded.
[    0.198983] ACPI: bus type USB registered
[    0.199078] usbcore: registered new interface driver usbfs
[    0.199162] usbcore: registered new interface driver hub
[    0.199250] usbcore: registered new device driver usb
[    0.199410] PCI: Using ACPI for IRQ routing
[    0.200796] PCI: pci_cache_line_size set to 64 bytes
[    0.200863] e820: reserve RAM buffer [mem 0x0009b400-0x0009ffff]
[    0.200864] e820: reserve RAM buffer [mem 0xb677e000-0xb7ffffff]
[    0.200866] e820: reserve RAM buffer [mem 0xb6dcf000-0xb7ffffff]
[    0.200867] e820: reserve RAM buffer [mem 0xb7000000-0xb7ffffff]
[    0.200868] e820: reserve RAM buffer [mem 0x23fe00000-0x23fffffff]
[    0.200961] NetLabel: Initializing
[    0.201026] NetLabel:  domain hash size = 128
[    0.201093] NetLabel:  protocols = UNLABELED CIPSOv4
[    0.201168] NetLabel:  unlabeled traffic allowed by default
[    0.201258] hpet0: at MMIO 0xfed00000, IRQs 2, 8, 0, 0, 0, 0, 0, 0
[    0.201663] hpet0: 8 comparators, 64-bit 14.318180 MHz counter
[    0.203747] Switched to clocksource hpet
[    0.205520] pnp: PnP ACPI init
[    0.205590] ACPI: bus type PNP registered
[    0.205752] system 00:00: [mem 0xfed10000-0xfed19fff] has been reserved
[    0.205824] system 00:00: [mem 0xe0000000-0xe3ffffff] has been reserved
[    0.205895] system 00:00: [mem 0xfed90000-0xfed93fff] has been reserved
[    0.205967] system 00:00: [mem 0xfed20000-0xfed3ffff] has been reserved
[    0.206038] system 00:00: [mem 0xfee00000-0xfee0ffff] has been reserved
[    0.206109] system 00:00: Plug and Play ACPI device, IDs PNP0c01 (active)
[    0.206182] system 00:01: [io  0x0290-0x029f] has been reserved
[    0.206252] system 00:01: Plug and Play ACPI device, IDs PNP0c02 (active)
[    0.206260] pnp 00:02: [dma 4]
[    0.206287] pnp 00:02: Plug and Play ACPI device, IDs PNP0200 (active)
[    0.206323] pnp 00:03: Plug and Play ACPI device, IDs PNP0b00 (active)
[    0.206352] pnp 00:04: Plug and Play ACPI device, IDs PNP0800 (active)
[    0.206400] system 00:05: [io  0x04d0-0x04d1] has been reserved
[    0.206470] system 00:05: Plug and Play ACPI device, IDs PNP0c02 (active)
[    0.206503] pnp 00:06: Plug and Play ACPI device, IDs PNP0c04 (active)
[    0.206701] system 00:07: [io  0x0400-0x0453] could not be reserved
[    0.206781] system 00:07: [io  0x0458-0x047f] has been reserved
[    0.206851] system 00:07: [io  0x0500-0x057f] has been reserved
[    0.206922] system 00:07: [mem 0xfed1c000-0xfed1ffff] has been reserved
[    0.206992] system 00:07: [mem 0xfec00000-0xfecfffff] could not be reserved
[    0.207064] system 00:07: [mem 0xfed08000-0xfed08fff] has been reserved
[    0.207135] system 00:07: [mem 0xff000000-0xffffffff] has been reserved
[    0.207206] system 00:07: Plug and Play ACPI device, IDs PNP0c01 (active)
[    0.207260] system 00:08: [io  0x0454-0x0457] has been reserved
[    0.207330] system 00:08: Plug and Play ACPI device, IDs INT3f0d PNP0c02 (active)
[    0.207429] pnp 00:09: Plug and Play ACPI device, IDs PNP0103 (active)
[    0.207519] pnp: PnP ACPI: found 10 devices
[    0.207587] ACPI: bus type PNP unregistered
[    0.214827] pci 0000:00:1c.3: BAR 15: assigned [mem 0xbfa00000-0xbfafffff pref]
[    0.214923] pci 0000:00:01.0: PCI bridge to [bus 01]
[    0.214992] pci 0000:00:01.0:   bridge window [io  0xe000-0xefff]
[    0.215063] pci 0000:00:01.0:   bridge window [mem 0xf8000000-0xfa0fffff]
[    0.215135] pci 0000:00:01.0:   bridge window [mem 0xd0000000-0xdbffffff 64bit pref]
[    0.215232] pci 0000:00:1c.0: PCI bridge to [bus 02]
[    0.215309] pci 0000:00:1c.1: PCI bridge to [bus 03]
[    0.215381] pci 0000:00:1c.1:   bridge window [mem 0xfac00000-0xfacfffff]
[    0.215457] pci 0000:00:1c.2: PCI bridge to [bus 04]
[    0.215535] pci 0000:05:00.0: BAR 6: assigned [mem 0xbfa00000-0xbfa0ffff pref]
[    0.215630] pci 0000:00:1c.3: PCI bridge to [bus 05]
[    0.215700] pci 0000:00:1c.3:   bridge window [io  0xd000-0xdfff]
[    0.215783] pci 0000:00:1c.3:   bridge window [mem 0xfab00000-0xfabfffff]
[    0.215856] pci 0000:00:1c.3:   bridge window [mem 0xbfa00000-0xbfafffff pref]
[    0.215954] pci 0000:00:1c.4: PCI bridge to [bus 06]
[    0.216025] pci 0000:00:1c.4:   bridge window [mem 0xfaa00000-0xfaafffff]
[    0.216102] pci 0000:07:00.0: PCI bridge to [bus 08]
[    0.216172] pci 0000:07:00.0:   bridge window [io  0xc000-0xcfff]
[    0.216247] pci 0000:07:00.0:   bridge window [mem 0xfa900000-0xfa9fffff]
[    0.216330] pci 0000:00:1c.6: PCI bridge to [bus 07-08]
[    0.216399] pci 0000:00:1c.6:   bridge window [io  0xc000-0xcfff]
[    0.216472] pci 0000:00:1c.6:   bridge window [mem 0xfa900000-0xfa9fffff]
[    0.216549] pci 0000:00:1c.7: PCI bridge to [bus 09]
[    0.216619] pci 0000:00:1c.7:   bridge window [io  0xb000-0xbfff]
[    0.216691] pci 0000:00:1c.7:   bridge window [mem 0xfa800000-0xfa8fffff]
[    0.216775] pci_bus 0000:00: resource 4 [io  0x0000-0x0cf7]
[    0.216777] pci_bus 0000:00: resource 5 [io  0x0d00-0xffff]
[    0.216778] pci_bus 0000:00: resource 6 [mem 0x000a0000-0x000bffff]
[    0.216779] pci_bus 0000:00: resource 7 [mem 0xbfa00000-0xffffffff]
[    0.216781] pci_bus 0000:01: resource 0 [io  0xe000-0xefff]
[    0.216782] pci_bus 0000:01: resource 1 [mem 0xf8000000-0xfa0fffff]
[    0.216783] pci_bus 0000:01: resource 2 [mem 0xd0000000-0xdbffffff 64bit pref]
[    0.216784] pci_bus 0000:03: resource 1 [mem 0xfac00000-0xfacfffff]
[    0.216786] pci_bus 0000:05: resource 0 [io  0xd000-0xdfff]
[    0.216787] pci_bus 0000:05: resource 1 [mem 0xfab00000-0xfabfffff]
[    0.216788] pci_bus 0000:05: resource 2 [mem 0xbfa00000-0xbfafffff pref]
[    0.216789] pci_bus 0000:06: resource 1 [mem 0xfaa00000-0xfaafffff]
[    0.216791] pci_bus 0000:07: resource 0 [io  0xc000-0xcfff]
[    0.216792] pci_bus 0000:07: resource 1 [mem 0xfa900000-0xfa9fffff]
[    0.216793] pci_bus 0000:07: resource 4 [io  0x0000-0x0cf7]
[    0.216794] pci_bus 0000:07: resource 5 [io  0x0d00-0xffff]
[    0.216796] pci_bus 0000:07: resource 6 [mem 0x000a0000-0x000bffff]
[    0.216797] pci_bus 0000:07: resource 7 [mem 0xbfa00000-0xffffffff]
[    0.216798] pci_bus 0000:08: resource 0 [io  0xc000-0xcfff]
[    0.216799] pci_bus 0000:08: resource 1 [mem 0xfa900000-0xfa9fffff]
[    0.216800] pci_bus 0000:08: resource 4 [io  0xc000-0xcfff]
[    0.216802] pci_bus 0000:08: resource 5 [mem 0xfa900000-0xfa9fffff]
[    0.216803] pci_bus 0000:08: resource 8 [io  0x0000-0x0cf7]
[    0.216804] pci_bus 0000:08: resource 9 [io  0x0d00-0xffff]
[    0.216805] pci_bus 0000:08: resource 10 [mem 0x000a0000-0x000bffff]
[    0.216807] pci_bus 0000:08: resource 11 [mem 0xbfa00000-0xffffffff]
[    0.216808] pci_bus 0000:09: resource 0 [io  0xb000-0xbfff]
[    0.216809] pci_bus 0000:09: resource 1 [mem 0xfa800000-0xfa8fffff]
[    0.216827] NET: Registered protocol family 2
[    0.217049] TCP established hash table entries: 65536 (order: 8, 1048576 bytes)
[    0.217301] TCP bind hash table entries: 65536 (order: 8, 1048576 bytes)
[    0.217482] TCP: Hash tables configured (established 65536 bind 65536)
[    0.217567] TCP: reno registered
[    0.217640] UDP hash table entries: 4096 (order: 5, 131072 bytes)
[    0.217731] UDP-Lite hash table entries: 4096 (order: 5, 131072 bytes)
[    0.217858] NET: Registered protocol family 1
[    0.217971] RPC: Registered named UNIX socket transport module.
[    0.218042] RPC: Registered udp transport module.
[    0.218109] RPC: Registered tcp transport module.
[    0.218177] RPC: Registered tcp NFSv4.1 backchannel transport module.
[    0.218252] pci 0000:00:02.0: Boot video device
[    0.464752] PCI: CLS 64 bytes, default 64
[    0.464781] PCI-DMA: Using software bounce buffering for IO (SWIOTLB)
[    0.464853] software IO TLB [mem 0xb277e000-0xb677e000] (64MB) mapped at [ffff8800b277e000-ffff8800b677dfff]
[    0.465512] microcode: CPU0 sig=0x206a7, pf=0x2, revision=0x14
[    0.465584] microcode: CPU1 sig=0x206a7, pf=0x2, revision=0x14
[    0.465658] microcode: CPU2 sig=0x206a7, pf=0x2, revision=0x14
[    0.465732] microcode: CPU3 sig=0x206a7, pf=0x2, revision=0x14
[    0.465832] microcode: Microcode Update Driver: v2.00 <tigran@aivazian.fsnet.co.uk>, Peter Oruba
[    0.465929] Scanning for low memory corruption every 60 seconds
[    0.466740] sha1_ssse3: Using AVX optimized SHA-1 implementation
[    0.466841] sha256_ssse3: Using AVX optimized SHA-256 implementation
[    0.466942] sha512_ssse3: Using AVX optimized SHA-512 implementation
[    0.481116] HugeTLB registered 2 MB page size, pre-allocated 0 pages
[    0.483029] VFS: Disk quotas dquot_6.5.2
[    0.483138] Dquot-cache hash table entries: 512 (order 0, 4096 bytes)
[    0.483849] NFS: Registering the id_resolver key type
[    0.483924] Key type id_resolver registered
[    0.483990] Key type id_legacy registered
[    0.484097] msgmni has been set to 15656
[    0.485092] NET: Registered protocol family 38
[    0.485159] Key type asymmetric registered
[    0.485226] Asymmetric key parser 'x509' registered
[    0.485347] Block layer SCSI generic (bsg) driver version 0.4 loaded (major 253)
[    0.485442] io scheduler noop registered
[    0.485529] io scheduler deadline registered
[    0.485626] io scheduler cfq registered (default)
[    0.485808] pcieport 0000:00:01.0: irq 40 for MSI/MSI-X
[    0.485918] pcieport 0000:00:1c.0: irq 41 for MSI/MSI-X
[    0.485992] pcieport 0000:00:1c.1: irq 42 for MSI/MSI-X
[    0.486101] pcieport 0000:00:1c.2: irq 43 for MSI/MSI-X
[    0.486209] pcieport 0000:00:1c.3: irq 44 for MSI/MSI-X
[    0.486284] pcieport 0000:00:1c.4: irq 45 for MSI/MSI-X
[    0.486392] pcieport 0000:00:1c.7: irq 46 for MSI/MSI-X
[    0.486526] pci_hotplug: PCI Hot Plug PCI Core version: 0.5
[    0.486723] input: Power Button as /devices/LNXSYSTM:00/device:00/PNP0C0C:00/input/input0
[    0.486822] ACPI: Power Button [PWRB]
[    0.486920] input: Power Button as /devices/LNXSYSTM:00/LNXPWRBN:00/input/input1
[    0.487015] ACPI: Power Button [PWRF]
[    0.487147] ACPI: Requesting acpi_cpufreq
[    0.487312] Monitor-Mwait will be used to enter C-1 state
[    0.487315] Monitor-Mwait will be used to enter C-3 state
[    0.487321] ACPI: acpi_idle registered with cpuidle
[    0.487978] Serial: 8250/16550 driver, 4 ports, IRQ sharing enabled
[    0.488549] Non-volatile memory driver v1.3
[    0.488617] Linux agpgart interface v0.103
[    0.488795] [drm] Initialized drm 1.1.0 20060810
[    0.488927] [drm:drm_pci_agp_init] *ERROR* Cannot initialize the agpgart module.
[    0.489023] DRM: Fill_in_dev failed.
[    0.489857] loop: module loaded
[    0.490080] ahci 0000:00:1f.2: version 3.0
[    0.490137] ahci 0000:00:1f.2: irq 47 for MSI/MSI-X
[    0.500540] ahci 0000:00:1f.2: AHCI 0001.0300 32 slots 6 ports 6 Gbps 0x3f impl SATA mode
[    0.500650] ahci 0000:00:1f.2: flags: 64bit ncq sntf pm led clo pio slum part ems apst 
[    0.511754] scsi0 : ahci
[    0.511933] scsi1 : ahci
[    0.512102] scsi2 : ahci
[    0.512270] scsi3 : ahci
[    0.512440] scsi4 : ahci
[    0.512624] scsi5 : ahci
[    0.512750] ata1: SATA max UDMA/133 abar m2048@0xfad25000 port 0xfad25100 irq 47
[    0.512845] ata2: SATA max UDMA/133 abar m2048@0xfad25000 port 0xfad25180 irq 47
[    0.512941] ata3: SATA max UDMA/133 abar m2048@0xfad25000 port 0xfad25200 irq 47
[    0.513036] ata4: SATA max UDMA/133 abar m2048@0xfad25000 port 0xfad25280 irq 47
[    0.513132] ata5: SATA max UDMA/133 abar m2048@0xfad25000 port 0xfad25300 irq 47
[    0.513227] ata6: SATA max UDMA/133 abar m2048@0xfad25000 port 0xfad25380 irq 47
[    0.513473] ahci 0000:05:00.0: AHCI 0001.0100 32 slots 2 ports 3 Gbps 0x3 impl SATA mode
[    0.513620] ahci 0000:05:00.0: flags: 64bit ncq pm led clo pmp pio slum part 
[    0.514083] scsi6 : ahci
[    0.514228] scsi7 : ahci
[    0.514357] ata7: SATA max UDMA/133 abar m512@0xfab10000 port 0xfab10100 irq 19
[    0.514465] ata8: SATA max UDMA/133 abar m512@0xfab10000 port 0xfab10180 irq 19
[    0.515090] ahci 0000:09:00.0: irq 48 for MSI/MSI-X
[    0.515160] ahci 0000:09:00.0: AHCI 0001.0000 32 slots 2 ports 6 Gbps 0x3 impl SATA mode
[    0.515257] ahci 0000:09:00.0: flags: 64bit ncq sntf led only pmp fbs pio slum part sxs 
[    0.515823] scsi8 : ahci
[    0.515977] scsi9 : ahci
[    0.516101] ata9: SATA max UDMA/133 abar m512@0xfa810000 port 0xfa810100 irq 48
[    0.516197] ata10: SATA max UDMA/133 abar m512@0xfa810000 port 0xfa810180 irq 48
[    0.516505] ehci_hcd: USB 2.0 'Enhanced' Host Controller (EHCI) Driver
[    0.516575] ehci-pci: EHCI PCI platform driver
[    0.516702] ehci-pci 0000:00:1a.0: EHCI Host Controller
[    0.516809] ehci-pci 0000:00:1a.0: new USB bus registered, assigned bus number 1
[    0.516914] ehci-pci 0000:00:1a.0: debug port 2
[    0.520867] ehci-pci 0000:00:1a.0: cache line size of 64 is not supported
[    0.520877] ehci-pci 0000:00:1a.0: irq 23, io mem 0xfad27000
[    0.527450] ehci-pci 0000:00:1a.0: USB 2.0 started, EHCI 1.00
[    0.527566] usb usb1: New USB device found, idVendor=1d6b, idProduct=0002
[    0.527644] usb usb1: New USB device strings: Mfr=3, Product=2, SerialNumber=1
[    0.527739] usb usb1: Product: EHCI Host Controller
[    0.527806] usb usb1: Manufacturer: Linux 3.12.61 ehci_hcd
[    0.527875] usb usb1: SerialNumber: 0000:00:1a.0
[    0.528246] hub 1-0:1.0: USB hub found
[    0.528318] hub 1-0:1.0: 2 ports detected
[    0.528494] ehci-pci 0000:00:1d.0: EHCI Host Controller
[    0.528684] ehci-pci 0000:00:1d.0: new USB bus registered, assigned bus number 2
[    0.528789] ehci-pci 0000:00:1d.0: debug port 2
[    0.532760] ehci-pci 0000:00:1d.0: cache line size of 64 is not supported
[    0.532763] ehci-pci 0000:00:1d.0: irq 23, io mem 0xfad26000
[    0.538481] ehci-pci 0000:00:1d.0: USB 2.0 started, EHCI 1.00
[    0.538584] usb usb2: New USB device found, idVendor=1d6b, idProduct=0002
[    0.538665] usb usb2: New USB device strings: Mfr=3, Product=2, SerialNumber=1
[    0.538761] usb usb2: Product: EHCI Host Controller
[    0.538829] usb usb2: Manufacturer: Linux 3.12.61 ehci_hcd
[    0.538898] usb usb2: SerialNumber: 0000:00:1d.0
[    0.539261] hub 2-0:1.0: USB hub found
[    0.539334] hub 2-0:1.0: 2 ports detected
[    0.539604] ohci_hcd: USB 1.1 'Open' Host Controller (OHCI) Driver
[    0.539675] ohci-pci: OHCI PCI platform driver
[    0.539825] uhci_hcd: USB Universal Host Controller Interface driver
[    0.540064] usbcore: registered new interface driver usblp
[    0.540199] usbcore: registered new interface driver usb-storage
[    0.540376] i8042: PNP: No PS/2 controller found. Probing ports directly.
[    0.543483] serio: i8042 KBD port at 0x60,0x64 irq 1
[    0.543555] serio: i8042 AUX port at 0x60,0x64 irq 12
[    0.543868] mousedev: PS/2 mouse device common for all mice
[    0.544133] rtc_cmos 00:03: RTC can wake from S4
[    0.544316] rtc_cmos 00:03: rtc core: registered rtc_cmos as rtc0
[    0.544415] rtc_cmos 00:03: alarms up to one month, y3k, 114 bytes nvram, hpet irqs
[    0.544646] i801_smbus 0000:00:1f.3: SMBus using PCI Interrupt
[    0.544911] device-mapper: ioctl: 4.26.0-ioctl (2013-08-15) initialised: dm-devel@redhat.com
[    0.545056] hidraw: raw HID events driver (C) Jiri Kosina
[    0.545793] usbcore: registered new interface driver usbhid
[    0.545862] usbhid: USB HID core driver
[    0.545979] Netfilter messages via NETLINK v0.30.
[    0.546053] nf_conntrack version 0.5.0 (16384 buckets, 65536 max)
[    0.546194] ctnetlink v0.93: registering with nfnetlink.
[    0.546322] ip_tables: (C) 2000-2006 Netfilter Core Team
[    0.546402] TCP: cubic registered
[    0.546482] Initializing XFRM netlink socket
[    0.546716] NET: Registered protocol family 10
[    0.546876] ip6_tables: (C) 2000-2006 Netfilter Core Team
[    0.546963] sit: IPv6 over IPv4 tunneling driver
[    0.547158] NET: Registered protocol family 17
[    0.547238] Key type dns_resolver registered
[    0.547613] registered taskstats version 1
[    0.548061] console [netcon0] enabled
[    0.548127] netconsole: network logging started
[    0.817215] ata2: SATA link up 6.0 Gbps (SStatus 133 SControl 300)
[    0.817320] ata1: SATA link up 6.0 Gbps (SStatus 133 SControl 300)
[    0.817609] ata2.00: ATA-9: INTEL SSDSC2BA100G3, 5DV10270, max UDMA/133
[    0.817684] ata2.00: 195371568 sectors, multi 1: LBA48 NCQ (depth 31/32)
[    0.817760] ata1.00: ATA-9: INTEL SSDSC2BA100G3, 5DV10270, max UDMA/133
[    0.817837] ata1.00: 195371568 sectors, multi 1: LBA48 NCQ (depth 31/32)
[    0.818072] ata2.00: configured for UDMA/133
[    0.818148] ata1.00: configured for UDMA/133
[    0.818255] ata6: SATA link up 3.0 Gbps (SStatus 123 SControl 300)
[    0.818343] ata5: SATA link up 3.0 Gbps (SStatus 123 SControl 300)
[    0.818429] ata3: SATA link up 3.0 Gbps (SStatus 123 SControl 300)
[    0.818590] scsi 0:0:0:0: Direct-Access     ATA      INTEL SSDSC2BA10 5DV1 PQ: 0 ANSI: 5
[    0.818595] ata6.00: ATA-9: INTEL SSDSC2BA100G3, 5DV10270, max UDMA/133
[    0.818596] ata6.00: 195371568 sectors, multi 1: LBA48 NCQ (depth 31/32)
[    0.818643] ata5.00: ATA-9: INTEL SSDSC2BA100G3, 5DV10270, max UDMA/133
[    0.818644] ata5.00: 195371568 sectors, multi 1: LBA48 NCQ (depth 31/32)
[    0.818680] ata3.00: ATA-9: INTEL SSDSC2BA100G3, 5DV10270, max UDMA/133
[    0.818680] ata3.00: 195371568 sectors, multi 1: LBA48 NCQ (depth 31/32)
[    0.818846] ata6.00: configured for UDMA/133
[    0.818884] ata5.00: configured for UDMA/133
[    0.818890] ata3.00: configured for UDMA/133
[    0.819218] ata8: SATA link down (SStatus 0 SControl 300)
[    0.819219] ata4: SATA link up 3.0 Gbps (SStatus 123 SControl 300)
[    0.819405] ata4.00: ATA-9: INTEL SSDSC2BA100G3, 5DV10270, max UDMA/133
[    0.819406] ata4.00: 195371568 sectors, multi 1: LBA48 NCQ (depth 31/32)
[    0.819604] ata4.00: configured for UDMA/133
[    0.820027] sd 0:0:0:0: [sda] 195371568 512-byte logical blocks: (100 GB/93.1 GiB)
[    0.820169] sd 0:0:0:0: [sda] 4096-byte physical blocks
[    0.820218] ata7: SATA link down (SStatus 0 SControl 300)
[    0.820222] sd 0:0:0:0: Attached scsi generic sg0 type 0
[    0.820405] scsi 1:0:0:0: Direct-Access     ATA      INTEL SSDSC2BA10 5DV1 PQ: 0 ANSI: 5
[    0.820571] sd 1:0:0:0: [sdb] 195371568 512-byte logical blocks: (100 GB/93.1 GiB)
[    0.820572] sd 1:0:0:0: [sdb] 4096-byte physical blocks
[    0.820644] sd 1:0:0:0: Attached scsi generic sg1 type 0
[    0.820693] sd 1:0:0:0: [sdb] Write Protect is off
[    0.820694] sd 1:0:0:0: [sdb] Mode Sense: 00 3a 00 00
[    0.820715] sd 1:0:0:0: [sdb] Write cache: enabled, read cache: enabled, doesn't support DPO or FUA
[    0.820748] scsi 2:0:0:0: Direct-Access     ATA      INTEL SSDSC2BA10 5DV1 PQ: 0 ANSI: 5
[    0.820926] sd 2:0:0:0: [sdc] 195371568 512-byte logical blocks: (100 GB/93.1 GiB)
[    0.820926] sd 2:0:0:0: [sdc] 4096-byte physical blocks
[    0.820982] sd 2:0:0:0: Attached scsi generic sg2 type 0
[    0.820992] sd 2:0:0:0: [sdc] Write Protect is off
[    0.820993] sd 2:0:0:0: [sdc] Mode Sense: 00 3a 00 00
[    0.821030] sd 2:0:0:0: [sdc] Write cache: enabled, read cache: enabled, doesn't support DPO or FUA
[    0.821091] scsi 3:0:0:0: Direct-Access     ATA      INTEL SSDSC2BA10 5DV1 PQ: 0 ANSI: 5
[    0.821094]  sdb: sdb1
[    0.821315] sd 3:0:0:0: [sdd] 195371568 512-byte logical blocks: (100 GB/93.1 GiB)
[    0.821316] sd 3:0:0:0: [sdd] 4096-byte physical blocks
[    0.821372] sd 3:0:0:0: Attached scsi generic sg3 type 0
[    0.821375] sd 3:0:0:0: [sdd] Write Protect is off
[    0.821376] sd 3:0:0:0: [sdd] Mode Sense: 00 3a 00 00
[    0.821381]  sdc: sdc1
[    0.821391] sd 3:0:0:0: [sdd] Write cache: enabled, read cache: enabled, doesn't support DPO or FUA
[    0.821422] sd 1:0:0:0: [sdb] Attached SCSI disk
[    0.821469] scsi 4:0:0:0: Direct-Access     ATA      INTEL SSDSC2BA10 5DV1 PQ: 0 ANSI: 5
[    0.821611] sd 4:0:0:0: [sde] 195371568 512-byte logical blocks: (100 GB/93.1 GiB)
[    0.821612] sd 2:0:0:0: [sdc] Attached SCSI disk
[    0.821613] sd 4:0:0:0: [sde] 4096-byte physical blocks
[    0.821691] sd 4:0:0:0: Attached scsi generic sg4 type 0
[    0.821693]  sdd: sdd1
[    0.821710] sd 4:0:0:0: [sde] Write Protect is off
[    0.821711] sd 4:0:0:0: [sde] Mode Sense: 00 3a 00 00
[    0.821732] sd 4:0:0:0: [sde] Write cache: enabled, read cache: enabled, doesn't support DPO or FUA
[    0.821779] scsi 5:0:0:0: Direct-Access     ATA      INTEL SSDSC2BA10 5DV1 PQ: 0 ANSI: 5
[    0.821947] sd 5:0:0:0: [sdf] 195371568 512-byte logical blocks: (100 GB/93.1 GiB)
[    0.821948] sd 5:0:0:0: [sdf] 4096-byte physical blocks
[    0.821963] sd 3:0:0:0: [sdd] Attached SCSI disk
[    0.822037] sd 5:0:0:0: Attached scsi generic sg5 type 0
[    0.822037] sd 5:0:0:0: [sdf] Write Protect is off
[    0.822038] sd 5:0:0:0: [sdf] Mode Sense: 00 3a 00 00
[    0.822066] sd 5:0:0:0: [sdf] Write cache: enabled, read cache: enabled, doesn't support DPO or FUA
[    0.822087]  sde: sde1
[    0.822373] sd 4:0:0:0: [sde] Attached SCSI disk
[    0.822459]  sdf: sdf1
[    0.822695] sd 5:0:0:0: [sdf] Attached SCSI disk
[    0.824563] sd 0:0:0:0: [sda] Write Protect is off
[    0.824632] sd 0:0:0:0: [sda] Mode Sense: 00 3a 00 00
[    0.824640] sd 0:0:0:0: [sda] Write cache: enabled, read cache: enabled, doesn't support DPO or FUA
[    0.824949]  sda: sda1
[    0.825159] sd 0:0:0:0: [sda] Attached SCSI disk
[    0.829205] usb 1-1: new high-speed USB device number 2 using ehci-pci
[    0.943820] usb 1-1: New USB device found, idVendor=8087, idProduct=0024
[    0.943893] usb 1-1: New USB device strings: Mfr=0, Product=0, SerialNumber=0
[    0.944591] hub 1-1:1.0: USB hub found
[    0.944770] hub 1-1:1.0: 6 ports detected
[    0.978068] ata10: SATA link up 3.0 Gbps (SStatus 123 SControl 300)
[    0.978532] ata10.00: ATA-8: INTEL SSDSA2CW120G3, 4PC10362, max UDMA/133
[    0.978615] ata10.00: 234441648 sectors, multi 1: LBA48 NCQ (depth 31/32)
[    0.979060] ata9: SATA link up 6.0 Gbps (SStatus 133 SControl 300)
[    0.979159] ata10.00: configured for UDMA/133
[    0.979653] ata9.00: ATA-9: INTEL SSDSC2BB080G6, G2010140, max UDMA/133
[    0.979741] ata9.00: 156301488 sectors, multi 1: LBA48 NCQ (depth 31/32)
[    0.980436] ata9.00: configured for UDMA/133
[    0.980661] scsi 8:0:0:0: Direct-Access     ATA      INTEL SSDSC2BB08 G201 PQ: 0 ANSI: 5
[    0.981707] sd 8:0:0:0: [sdg] 156301488 512-byte logical blocks: (80.0 GB/74.5 GiB)
[    0.981831] sd 8:0:0:0: [sdg] 4096-byte physical blocks
[    0.981893] sd 8:0:0:0: Attached scsi generic sg6 type 0
[    0.982061] sd 8:0:0:0: [sdg] Write Protect is off
[    0.982078] scsi 9:0:0:0: Direct-Access     ATA      INTEL SSDSA2CW12 4PC1 PQ: 0 ANSI: 5
[    0.982255] sd 8:0:0:0: [sdg] Mode Sense: 00 3a 00 00
[    0.982263] sd 8:0:0:0: [sdg] Write cache: enabled, read cache: enabled, doesn't support DPO or FUA
[    0.982349] sd 9:0:0:0: [sdh] 234441648 512-byte logical blocks: (120 GB/111 GiB)
[    0.982423] sd 9:0:0:0: Attached scsi generic sg7 type 0
[    0.982461] sd 9:0:0:0: [sdh] Write Protect is off
[    0.982462] sd 9:0:0:0: [sdh] Mode Sense: 00 3a 00 00
[    0.982505] sd 9:0:0:0: [sdh] Write cache: enabled, read cache: enabled, doesn't support DPO or FUA
[    0.982899]  sdh: sdh1
[    0.983177] sd 9:0:0:0: [sdh] Attached SCSI disk
[    0.983333]  sdg: sdg1 sdg2 sdg3 sdg4
[    0.983712] sd 8:0:0:0: [sdg] Attached SCSI disk
[    0.983787] md: Waiting for all devices to be available before autodetect
[    0.983859] md: If you don't use raid, use raid=noautodetect
[    0.984046] md: Autodetecting RAID arrays.
[    0.984229] md: invalid raid superblock magic on sdb1
[    0.984304] md: sdb1 does not have a valid v0.90 superblock, not importing!
[    0.984434] md: invalid raid superblock magic on sdc1
[    0.984504] md: sdc1 does not have a valid v0.90 superblock, not importing!
[    0.984628] md: invalid raid superblock magic on sdd1
[    0.984696] md: sdd1 does not have a valid v0.90 superblock, not importing!
[    0.984818] md: invalid raid superblock magic on sde1
[    0.984886] md: sde1 does not have a valid v0.90 superblock, not importing!
[    0.985009] md: invalid raid superblock magic on sdf1
[    0.985078] md: sdf1 does not have a valid v0.90 superblock, not importing!
[    0.985270] md: invalid raid superblock magic on sda1
[    0.985339] md: sda1 does not have a valid v0.90 superblock, not importing!
[    0.985412] md: Scanned 6 and added 0 devices.
[    0.985479] md: autorun ...
[    0.985544] md: ... autorun DONE.
[    0.985764] EXT4-fs (sdg3): couldn't mount as ext2 due to feature incompatibilities
[    0.988583] EXT4-fs (sdg3): mounted filesystem with ordered data mode. Opts: (null)
[    0.988685] VFS: Mounted root (ext4 filesystem) readonly on device 8:99.
[    0.989203] Freeing unused kernel memory: 964K (ffffffff81cbc000 - ffffffff81dad000)
[    0.989299] Write protecting the kernel read-only data: 12288k
[    0.989663] Freeing unused kernel memory: 1020K (ffff880001701000 - ffff880001800000)
[    0.992063] Freeing unused kernel memory: 1680K (ffff880001a5c000 - ffff880001c00000)
[    1.047905] kbd_mode (1182) used greatest stack depth: 5704 bytes left
[    1.047946] usb 2-1: new high-speed USB device number 2 using ehci-pci
[    1.069417] loadkeys (1183) used greatest stack depth: 5112 bytes left
[    1.069609] init-early.sh (1181) used greatest stack depth: 4416 bytes left
[    1.162261] usb 2-1: New USB device found, idVendor=8087, idProduct=0024
[    1.162334] usb 2-1: New USB device strings: Mfr=0, Product=0, SerialNumber=0
[    1.162814] hub 2-1:1.0: USB hub found
[    1.163004] hub 2-1:1.0: 8 ports detected
[    1.316457] pps_core: LinuxPPS API ver. 1 registered
[    1.316459] pps_core: Software ver. 5.3.6 - Copyright 2005-2007 Rodolfo Giometti <giometti@linux.it>
[    1.318294] PTP clock support registered
[    1.321078] e1000e: Intel(R) PRO/1000 Network Driver - 2.3.2-k
[    1.321080] e1000e: Copyright(c) 1999 - 2013 Intel Corporation.
[    1.321204] e1000e 0000:00:19.0: Interrupt Throttling Rate (ints/sec) set to dynamic conservative mode
[    1.321226] e1000e 0000:00:19.0: irq 49 for MSI/MSI-X
[    1.346768] md: bind<sde1>
[    1.348465] md: bind<sdc1>
[    1.350002] md: bind<sda1>
[    1.351370] md: bind<sdd1>
[    1.352657] md: bind<sdf1>
[    1.354127] md: bind<sdb1>
[    1.356501] md: raid10 personality registered for level 10
[    1.356688] md/raid10:md127: active with 6 out of 6 devices
[    1.356700] md127: detected capacity change from 0 to 299885395968
[    1.356980]  md127: unknown partition table
[    1.437607] usb 2-1.7: new full-speed USB device number 3 using ehci-pci
[    1.464581] tsc: Refined TSC clocksource calibration: 3300.021 MHz
[    1.523506] usb 2-1.7: New USB device found, idVendor=0cf3, idProduct=3000
[    1.523508] usb 2-1.7: New USB device strings: Mfr=0, Product=0, SerialNumber=0
[    1.565576] e1000e 0000:00:19.0 eth0: registered PHC clock
[    1.565578] e1000e 0000:00:19.0 eth0: (PCI Express:2.5GT/s:Width x1) 14:da:e9:0f:78:84
[    1.565580] e1000e 0000:00:19.0 eth0: Intel(R) PRO/1000 Network Connection
[    1.565612] e1000e 0000:00:19.0 eth0: MAC: 10, PHY: 11, PBA No: FFFFFF-0FF
[    2.222317] EXT4-fs (sdg3): re-mounted. Opts: (null)
[    2.261022] Adding 1020k swap on /dev/sdg2.  Priority:-1 extents:1 across:1020k SS
[    2.463669] Switched to clocksource tsc
[    2.832208] e1000e 0000:00:19.0: irq 49 for MSI/MSI-X
[    2.933196] e1000e 0000:00:19.0: irq 49 for MSI/MSI-X
[    2.933283] IPv6: ADDRCONF(NETDEV_UP): eno1: link is not ready
[    5.744643] e1000e: eno1 NIC Link is Up 1000 Mbps Full Duplex, Flow Control: Rx/Tx
[    5.744675] IPv6: ADDRCONF(NETDEV_CHANGE): eno1: link becomes ready
[   21.846973] SGI XFS with ACLs, security attributes, realtime, large block/inode numbers, no debug enabled
[   21.848016] XFS (sdh1): Mounting Filesystem
[   21.879815] XFS (sdh1): Ending clean mount
[   25.319552] EXT4-fs (md127): barriers disabled
[   25.320885] EXT4-fs (md127): mounted filesystem with ordered data mode. Opts: nobarrier
