 datid |  datname  | numbackends | xact_commit | xact_rollback | blks_read | blks_hit  | tup_returned | tup_fetched | tup_inserted | tup_updated | tup_deleted | conflicts | temp_files | temp_bytes | deadlocks | blk_read_time | blk_write_time |          stats_reset          
-------+-----------+-------------+-------------+---------------+-----------+-----------+--------------+-------------+--------------+-------------+-------------+-----------+------------+------------+-----------+---------------+----------------+-------------------------------
 12406 | postgres  |           1 |          79 |             0 |        93 |      3727 |        30318 |        1226 |            0 |           0 |           0 |         0 |          0 |          0 |         0 |             0 |              0 | 2016-08-23 23:42:48.353471+02
 16384 | pgbench   |           0 |    60423087 |             0 |    227702 | 242026323 |     63459926 |    60424670 |      3000424 |           3 |           0 |         0 |          0 |          0 |         0 |             0 |              0 | 2016-08-23 23:42:48.614459+02
     1 | template1 |           0 |           0 |             0 |         0 |         0 |            0 |           0 |            0 |           0 |           0 |         0 |          0 |          0 |         0 |             0 |              0 | 
 12405 | template0 |           0 |           0 |             0 |         0 |         0 |            0 |           0 |            0 |           0 |           0 |         0 |          0 |          0 |         0 |             0 |              0 | 
(4 rows)

