starting vacuum...end.
transaction type: <builtin: TPC-B (sort of)>
scaling factor: 30
query mode: simple
number of clients: 1
number of threads: 1
duration: 1800 s
number of transactions actually processed: 3682951
latency average: 0.489 ms
tps = 2046.083735 (including connections establishing)
tps = 2046.085081 (excluding connections establishing)
