 checkpoints_timed | checkpoints_req | checkpoint_write_time | checkpoint_sync_time | buffers_checkpoint | buffers_clean | maxwritten_clean | buffers_backend | buffers_backend_fsync | buffers_alloc |          stats_reset          
-------------------+-----------------+-----------------------+----------------------+--------------------+---------------+------------------+-----------------+-----------------------+---------------+-------------------------------
                 5 |               5 |                728807 |                  168 |             142157 |             0 |                0 |          171100 |                     0 |         83309 | 2016-08-23 23:41:15.461504+02
(1 row)

