 checkpoints_timed | checkpoints_req | checkpoint_write_time | checkpoint_sync_time | buffers_checkpoint | buffers_clean | maxwritten_clean | buffers_backend | buffers_backend_fsync | buffers_alloc |          stats_reset          
-------------------+-----------------+-----------------------+----------------------+--------------------+---------------+------------------+-----------------+-----------------------+---------------+-------------------------------
                54 |              41 |              12333392 |                 2057 |            2434921 |       8959784 |            78756 |        59100651 |                     0 |     503347240 | 2016-08-22 01:42:33.204558+02
(1 row)

