starting vacuum...end.
transaction type: <builtin: select only>
scaling factor: 300
query mode: simple
number of clients: 16
number of threads: 1
duration: 900 s
number of transactions actually processed: 52177287
latency average: 0.276 ms
tps = 57974.661878 (including connections establishing)
tps = 57974.727989 (excluding connections establishing)
