 datid |  datname  | numbackends | xact_commit | xact_rollback | blks_read |  blks_hit  | tup_returned | tup_fetched | tup_inserted | tup_updated | tup_deleted | conflicts | temp_files | temp_bytes | deadlocks | blk_read_time | blk_write_time |          stats_reset          
-------+-----------+-------------+-------------+---------------+-----------+------------+--------------+-------------+--------------+-------------+-------------+-----------+------------+------------+-----------+---------------+----------------+-------------------------------
 12406 | postgres  |           1 |         893 |             0 |       251 |      34101 |       371107 |        8338 |            0 |           0 |           0 |         0 |          0 |          0 |         0 |             0 |              0 | 2016-08-01 03:46:36.343338+02
 16384 | pgbench   |           0 |   409352034 |             0 |    747799 | 3780753974 |   1643952169 |   634858981 |     78255476 |   225768477 |           0 |         0 |          0 |          0 |         0 |             0 |              0 | 2016-08-01 03:46:36.594494+02
     1 | template1 |           0 |           0 |             0 |         0 |          0 |            0 |           0 |            0 |           0 |           0 |         0 |          0 |          0 |         0 |             0 |              0 | 
 12405 | template0 |           0 |           0 |             0 |         0 |          0 |            0 |           0 |            0 |           0 |           0 |         0 |          0 |          0 |         0 |             0 |              0 | 
(4 rows)

