starting vacuum...end.
transaction type: <builtin: select only>
scaling factor: 30
query mode: simple
number of clients: 1
number of threads: 1
duration: 900 s
number of transactions actually processed: 14380709
latency average: 0.063 ms
tps = 15978.562662 (including connections establishing)
tps = 15978.592808 (excluding connections establishing)
