 datid |  datname  | numbackends | xact_commit | xact_rollback | blks_read | blks_hit  | tup_returned | tup_fetched | tup_inserted | tup_updated | tup_deleted | conflicts | temp_files | temp_bytes | deadlocks | blk_read_time | blk_write_time |          stats_reset          
-------+-----------+-------------+-------------+---------------+-----------+-----------+--------------+-------------+--------------+-------------+-------------+-----------+------------+------------+-----------+---------------+----------------+-------------------------------
 12406 | postgres  |           1 |        1075 |             0 |      1215 |     39955 |       445297 |        9987 |            0 |           0 |           0 |         0 |          0 |          0 |         0 |             0 |              0 | 2016-07-17 14:50:57.862894+02
     1 | template1 |           0 |           0 |             0 |         0 |         0 |            0 |           0 |            0 |           0 |           0 |         0 |          0 |          0 |         0 |             0 |              0 | 
 12405 | template0 |           0 |           0 |             0 |         0 |         0 |            0 |           0 |            0 |           0 |           0 |         0 |          0 |          0 |         0 |             0 |              0 | 
 16423 | pgbench   |           0 |    55781259 |             0 |  67225827 | 213991255 |     85822596 |    55782851 |     30003394 |           3 |           0 |         0 |          1 |  600498176 |         0 |             0 |              0 | 2016-07-17 21:51:22.070356+02
(4 rows)

