 checkpoints_timed | checkpoints_req | checkpoint_write_time | checkpoint_sync_time | buffers_checkpoint | buffers_clean | maxwritten_clean | buffers_backend | buffers_backend_fsync | buffers_alloc |          stats_reset          
-------------------+-----------------+-----------------------+----------------------+--------------------+---------------+------------------+-----------------+-----------------------+---------------+-------------------------------
                 0 |               3 |                    16 |                   18 |               2124 |             0 |                0 |          145529 |                     0 |          2416 | 2016-07-10 22:52:45.026533+02
(1 row)

