 checkpoints_timed | checkpoints_req | checkpoint_write_time | checkpoint_sync_time | buffers_checkpoint | buffers_clean | maxwritten_clean | buffers_backend | buffers_backend_fsync | buffers_alloc |          stats_reset          
-------------------+-----------------+-----------------------+----------------------+--------------------+---------------+------------------+-----------------+-----------------------+---------------+-------------------------------
                59 |              46 |              13772586 |                 3356 |            2492022 |      10672463 |            95766 |        77573676 |                     0 |     573088599 | 2016-08-23 23:41:15.461504+02
(1 row)

