 checkpoints_timed | checkpoints_req | checkpoint_write_time | checkpoint_sync_time | buffers_checkpoint | buffers_clean | maxwritten_clean | buffers_backend | buffers_backend_fsync | buffers_alloc |          stats_reset          
-------------------+-----------------+-----------------------+----------------------+--------------------+---------------+------------------+-----------------+-----------------------+---------------+-------------------------------
                61 |              47 |              13775279 |                 3395 |            2590914 |      11085445 |            99005 |        78830276 |                     0 |     600594010 | 2016-08-23 23:41:15.461504+02
(1 row)

