 datid |  datname  | numbackends | xact_commit | xact_rollback | blks_read | blks_hit  | tup_returned | tup_fetched | tup_inserted | tup_updated | tup_deleted | conflicts | temp_files | temp_bytes | deadlocks | blk_read_time | blk_write_time |          stats_reset          
-------+-----------+-------------+-------------+---------------+-----------+-----------+--------------+-------------+--------------+-------------+-------------+-----------+------------+------------+-----------+---------------+----------------+-------------------------------
 12406 | postgres  |           1 |        2505 |             0 |     18901 |     75856 |      1042950 |       22495 |            0 |           0 |           0 |         0 |          0 |          0 |         0 |             0 |              0 | 2016-07-13 17:26:07.381078+02
     1 | template1 |           0 |           0 |             0 |         0 |         0 |            0 |           0 |            0 |           0 |           0 |         0 |          0 |          0 |         0 |             0 |              0 | 
 12405 | template0 |           0 |           0 |             0 |         0 |         0 |            0 |           0 |            0 |           0 |           0 |         0 |          0 |          0 |         0 |             0 |              0 | 
 16462 | pgbench   |           0 |    61993406 |             1 | 121926129 | 555611991 |    307707536 |   112142726 |    166711855 |    50087045 |           0 |         0 |          3 | 3002441728 |         0 |             0 |              0 | 2016-07-14 07:27:39.850381+02
(4 rows)

