 checkpoints_timed | checkpoints_req | checkpoint_write_time | checkpoint_sync_time | buffers_checkpoint | buffers_clean | maxwritten_clean | buffers_backend | buffers_backend_fsync | buffers_alloc |          stats_reset          
-------------------+-----------------+-----------------------+----------------------+--------------------+---------------+------------------+-----------------+-----------------------+---------------+-------------------------------
                41 |              33 |              10104069 |                 3312 |            2168142 |       5774575 |            50355 |        35295099 |                     0 |     299009628 | 2016-08-03 22:59:31.517121+02
(1 row)

