 datid |  datname  | numbackends | xact_commit | xact_rollback | blks_read |  blks_hit  | tup_returned | tup_fetched | tup_inserted | tup_updated | tup_deleted | conflicts | temp_files | temp_bytes | deadlocks | blk_read_time | blk_write_time |          stats_reset          
-------+-----------+-------------+-------------+---------------+-----------+------------+--------------+-------------+--------------+-------------+-------------+-----------+------------+------------+-----------+---------------+----------------+-------------------------------
 12406 | postgres  |           1 |        1569 |             0 |      7629 |      52006 |       653617 |       14234 |            0 |           0 |           0 |         0 |          0 |          0 |         0 |             0 |              0 | 2016-07-15 11:14:22.326128+02
     1 | template1 |           0 |           0 |             0 |         0 |          0 |            0 |           0 |            0 |           0 |           0 |         0 |          0 |          0 |         0 |             0 |              0 | 
 12405 | template0 |           0 |           0 |             0 |         0 |          0 |            0 |           0 |            0 |           0 |           0 |         0 |          0 |          0 |         0 |             0 |              0 | 
 16423 | pgbench   |           1 |   270718643 |             1 | 325305809 | 4874576876 |   2612893051 |   397673673 |     72297217 |   126883016 |           0 |         0 |          1 |  600498176 |         0 |             0 |              0 | 2016-07-15 18:14:46.533099+02
(4 rows)

