 checkpoints_timed | checkpoints_req | checkpoint_write_time | checkpoint_sync_time | buffers_checkpoint | buffers_clean | maxwritten_clean | buffers_backend | buffers_backend_fsync | buffers_alloc |          stats_reset          
-------------------+-----------------+-----------------------+----------------------+--------------------+---------------+------------------+-----------------+-----------------------+---------------+-------------------------------
                38 |              31 |               9384520 |                 4406 |            2043756 |       4770944 |            42679 |        29644378 |                     0 |     254194108 | 2016-07-15 11:13:12.598738+02
(1 row)

