 datid |  datname  | numbackends | xact_commit | xact_rollback | blks_read | blks_hit  | tup_returned | tup_fetched | tup_inserted | tup_updated | tup_deleted | conflicts | temp_files | temp_bytes | deadlocks | blk_read_time | blk_write_time |          stats_reset          
-------+-----------+-------------+-------------+---------------+-----------+-----------+--------------+-------------+--------------+-------------+-------------+-----------+------------+------------+-----------+---------------+----------------+-------------------------------
 12406 | postgres  |           1 |        2983 |             0 |     23233 |     86501 |      1177574 |       26478 |            0 |           0 |           0 |         0 |          0 |          0 |         0 |             0 |              0 | 2016-08-22 01:43:41.019558+02
     1 | template1 |           0 |         194 |             0 |      1013 |      4006 |        18396 |        1813 |            0 |           0 |           0 |         0 |          0 |          0 |         0 |             0 |              0 | 2016-08-22 21:20:03.640152+02
 12405 | template0 |           0 |         194 |             0 |      1008 |      4011 |        18396 |        1813 |            0 |           0 |           0 |         0 |          0 |          0 |         0 |             0 |              0 | 2016-08-22 21:20:33.678782+02
 16462 | pgbench   |           0 |    96133066 |             2 | 185469429 | 977423019 |    426637276 |   190962107 |    181585720 |    94709614 |           0 |         0 |          3 | 3002441728 |         0 |             0 |              0 | 2016-08-22 15:46:23.86871+02
(4 rows)

