starting vacuum...end.
transaction type: <builtin: select only>
scaling factor: 300
query mode: simple
number of clients: 16
number of threads: 1
duration: 900 s
number of transactions actually processed: 53505601
latency average: 0.269 ms
tps = 59449.795913 (including connections establishing)
tps = 59449.855643 (excluding connections establishing)
