 checkpoints_timed | checkpoints_req | checkpoint_write_time | checkpoint_sync_time | buffers_checkpoint | buffers_clean | maxwritten_clean | buffers_backend | buffers_backend_fsync | buffers_alloc |          stats_reset          
-------------------+-----------------+-----------------------+----------------------+--------------------+---------------+------------------+-----------------+-----------------------+---------------+-------------------------------
                52 |              44 |              12993479 |                 3470 |            2493109 |       9840566 |            87489 |        75386477 |                     0 |     539083253 | 2016-08-03 22:59:31.517121+02
(1 row)

