 checkpoints_timed | checkpoints_req | checkpoint_write_time | checkpoint_sync_time | buffers_checkpoint | buffers_clean | maxwritten_clean | buffers_backend | buffers_backend_fsync | buffers_alloc |          stats_reset          
-------------------+-----------------+-----------------------+----------------------+--------------------+---------------+------------------+-----------------+-----------------------+---------------+-------------------------------
                49 |              38 |              11554754 |                 2375 |            2342988 |       8003202 |            69858 |        51418911 |                     0 |     439238984 | 2016-08-13 17:56:54.093305+02
(1 row)

