 checkpoints_timed | checkpoints_req | checkpoint_write_time | checkpoint_sync_time | buffers_checkpoint | buffers_clean | maxwritten_clean | buffers_backend | buffers_backend_fsync | buffers_alloc |          stats_reset          
-------------------+-----------------+-----------------------+----------------------+--------------------+---------------+------------------+-----------------+-----------------------+---------------+-------------------------------
                28 |              20 |               6498125 |                 2153 |            1761726 |        248625 |             2324 |          748248 |                     0 |        657934 | 2016-08-13 17:56:54.093305+02
(1 row)

