 datid |  datname  | numbackends | xact_commit | xact_rollback | blks_read |  blks_hit  | tup_returned | tup_fetched | tup_inserted | tup_updated | tup_deleted | conflicts | temp_files | temp_bytes | deadlocks | blk_read_time | blk_write_time |          stats_reset          
-------+-----------+-------------+-------------+---------------+-----------+------------+--------------+-------------+--------------+-------------+-------------+-----------+------------+------------+-----------+---------------+----------------+-------------------------------
 12406 | postgres  |           1 |         283 |             0 |       157 |      11412 |       113451 |        3113 |            0 |           0 |           0 |         0 |          0 |          0 |         0 |             0 |              0 | 2016-07-10 00:36:55.78696+02
 16384 | pgbench   |           0 |   184938816 |             0 |    342262 | 1216555471 |    474953994 |   234275840 |     19575117 |    49724838 |           0 |         0 |          0 |          0 |         0 |             0 |              0 | 2016-07-10 00:36:56.041599+02
     1 | template1 |           0 |           0 |             0 |         0 |          0 |            0 |           0 |            0 |           0 |           0 |         0 |          0 |          0 |         0 |             0 |              0 | 
 12405 | template0 |           0 |           0 |             0 |         0 |          0 |            0 |           0 |            0 |           0 |           0 |         0 |          0 |          0 |         0 |             0 |              0 | 
(4 rows)

