 checkpoints_timed | checkpoints_req | checkpoint_write_time | checkpoint_sync_time | buffers_checkpoint | buffers_clean | maxwritten_clean | buffers_backend | buffers_backend_fsync | buffers_alloc |          stats_reset          
-------------------+-----------------+-----------------------+----------------------+--------------------+---------------+------------------+-----------------+-----------------------+---------------+-------------------------------
                54 |              47 |              13716054 |                 3383 |            2575280 |      10666185 |            95990 |        77785844 |                     0 |     575349698 | 2016-08-04 20:19:15.131897+02
(1 row)

