starting vacuum...end.
transaction type: <builtin: select only>
scaling factor: 1500
query mode: simple
number of clients: 4
number of threads: 1
duration: 900 s
number of transactions actually processed: 15035476
latency average: 0.239 ms
tps = 16706.068128 (including connections establishing)
tps = 16706.089595 (excluding connections establishing)
