starting vacuum...end.
transaction type: <builtin: TPC-B (sort of)>
scaling factor: 30
query mode: simple
number of clients: 1
number of threads: 1
duration: 1800 s
number of transactions actually processed: 3651541
latency average: 0.493 ms
tps = 2028.633426 (including connections establishing)
tps = 2028.635328 (excluding connections establishing)
