starting vacuum...end.
transaction type: <builtin: select only>
scaling factor: 30
query mode: simple
number of clients: 4
number of threads: 1
duration: 900 s
number of transactions actually processed: 45154751
latency average: 0.080 ms
tps = 50171.936413 (including connections establishing)
tps = 50172.001274 (excluding connections establishing)
