 datid |  datname  | numbackends | xact_commit | xact_rollback | blks_read |  blks_hit  | tup_returned | tup_fetched | tup_inserted | tup_updated | tup_deleted | conflicts | temp_files | temp_bytes | deadlocks | blk_read_time | blk_write_time |          stats_reset          
-------+-----------+-------------+-------------+---------------+-----------+------------+--------------+-------------+--------------+-------------+-------------+-----------+------------+------------+-----------+---------------+----------------+-------------------------------
 12406 | postgres  |           1 |         363 |             0 |       169 |      14318 |       148877 |        3723 |            0 |           0 |           0 |         0 |          0 |          0 |         0 |             0 |              0 | 2016-08-11 15:27:10.988438+02
 16384 | pgbench   |           0 |   190323437 |             0 |    442010 | 1647994910 |    720353322 |   280547393 |     33187473 |    90562375 |           0 |         0 |          0 |          0 |         0 |             0 |              0 | 2016-08-11 15:27:11.243306+02
     1 | template1 |           0 |           0 |             0 |         0 |          0 |            0 |           0 |            0 |           0 |           0 |         0 |          0 |          0 |         0 |             0 |              0 | 
 12405 | template0 |           0 |           0 |             0 |         0 |          0 |            0 |           0 |            0 |           0 |           0 |         0 |          0 |          0 |         0 |             0 |              0 | 
(4 rows)

