 checkpoints_timed | checkpoints_req | checkpoint_write_time | checkpoint_sync_time | buffers_checkpoint | buffers_clean | maxwritten_clean | buffers_backend | buffers_backend_fsync | buffers_alloc |          stats_reset          
-------------------+-----------------+-----------------------+----------------------+--------------------+---------------+------------------+-----------------+-----------------------+---------------+-------------------------------
                68 |              54 |              16596161 |                20478 |            2834359 |      16073101 |           149215 |       109078716 |                     0 |     676569113 | 2016-08-18 18:23:21.115304+02
(1 row)

