 datid |  datname  | numbackends | xact_commit | xact_rollback | blks_read |  blks_hit  | tup_returned | tup_fetched | tup_inserted | tup_updated | tup_deleted | conflicts | temp_files | temp_bytes | deadlocks | blk_read_time | blk_write_time |          stats_reset          
-------+-----------+-------------+-------------+---------------+-----------+------------+--------------+-------------+--------------+-------------+-------------+-----------+------------+------------+-----------+---------------+----------------+-------------------------------
 12406 | postgres  |           1 |        2835 |             0 |     21873 |      82281 |      1116284 |       25154 |            0 |           0 |           0 |         0 |          0 |          0 |         0 |             0 |              0 | 2016-08-12 17:38:52.705825+02
     1 | template1 |           0 |         206 |             0 |      1241 |       4192 |        24264 |        1879 |            0 |           0 |           0 |         0 |          0 |          0 |         0 |             0 |              0 | 2016-08-13 12:06:46.79687+02
 12405 | template0 |           0 |         206 |             0 |      1241 |       4192 |        24264 |        1879 |            0 |           0 |           0 |         0 |          0 |          0 |         0 |             0 |              0 | 2016-08-13 12:07:16.835025+02
 16462 | pgbench   |           1 |   156903332 |             1 | 297363046 | 1689723622 |    732414428 |   273980426 |    189005885 |   116969704 |           0 |         0 |          3 | 3002441728 |         0 |             0 |              0 | 2016-08-13 07:40:21.534075+02
(4 rows)

