starting vacuum...end.
transaction type: <builtin: select only>
scaling factor: 1500
query mode: simple
number of clients: 16
number of threads: 1
duration: 900 s
number of transactions actually processed: 31617008
latency average: 0.455 ms
tps = 35129.919971 (including connections establishing)
tps = 35129.960014 (excluding connections establishing)
