 datid |  datname  | numbackends | xact_commit | xact_rollback | blks_read |  blks_hit  | tup_returned | tup_fetched | tup_inserted | tup_updated | tup_deleted | conflicts | temp_files | temp_bytes | deadlocks | blk_read_time | blk_write_time |          stats_reset          
-------+-----------+-------------+-------------+---------------+-----------+------------+--------------+-------------+--------------+-------------+-------------+-----------+------------+------------+-----------+---------------+----------------+-------------------------------
 12406 | postgres  |           1 |        2609 |             0 |     20418 |      78243 |      1086418 |       23407 |            0 |           0 |           0 |         0 |          0 |          0 |         0 |             0 |              0 | 2016-08-12 17:38:52.705825+02
     1 | template1 |           0 |           0 |             0 |         0 |          0 |            0 |           0 |            0 |           0 |           0 |         0 |          0 |          0 |         0 |             0 |              0 | 
 12405 | template0 |           0 |           0 |             0 |         0 |          0 |            0 |           0 |            0 |           0 |           0 |         0 |          0 |          0 |         0 |             0 |              0 | 
 16462 | pgbench   |           0 |   145151917 |             1 | 275167250 | 1194851639 |    531766665 |   226945807 |    177254917 |    81716514 |           0 |         0 |          3 | 3002441728 |         0 |             0 |              0 | 2016-08-13 07:40:21.534075+02
(4 rows)

