 datid |  datname  | numbackends | xact_commit | xact_rollback | blks_read | blks_hit  | tup_returned | tup_fetched | tup_inserted | tup_updated | tup_deleted | conflicts | temp_files | temp_bytes | deadlocks | blk_read_time | blk_write_time |          stats_reset          
-------+-----------+-------------+-------------+---------------+-----------+-----------+--------------+-------------+--------------+-------------+-------------+-----------+------------+------------+-----------+---------------+----------------+-------------------------------
 12406 | postgres  |           1 |        1143 |             0 |      1906 |     41768 |       474855 |       10531 |            0 |           0 |           0 |         0 |          0 |          0 |         0 |             0 |              0 | 2016-08-02 01:23:11.164764+02
     1 | template1 |           0 |           0 |             0 |         0 |         0 |            0 |           0 |            0 |           0 |           0 |         0 |          0 |          0 |         0 |             0 |              0 | 
 12405 | template0 |           0 |           0 |             0 |         0 |         0 |            0 |           0 |            0 |           0 |           0 |         0 |          0 |          0 |         0 |             0 |              0 | 
 16423 | pgbench   |           0 |    58672348 |             0 |  70806761 | 349423589 |    139517521 |    68840335 |     33389527 |    10158701 |           0 |         0 |          1 |  600498176 |         0 |             0 |              0 | 2016-08-02 08:23:34.301659+02
(4 rows)

