 checkpoints_timed | checkpoints_req | checkpoint_write_time | checkpoint_sync_time | buffers_checkpoint | buffers_clean | maxwritten_clean | buffers_backend | buffers_backend_fsync | buffers_alloc |          stats_reset          
-------------------+-----------------+-----------------------+----------------------+--------------------+---------------+------------------+-----------------+-----------------------+---------------+-------------------------------
                56 |              47 |              13710395 |                 3171 |            2558267 |      10711141 |            96143 |        79559032 |                     0 |     563763267 | 2016-08-01 03:45:27.672109+02
(1 row)

