 datid |  datname  | numbackends | xact_commit | xact_rollback | blks_read |  blks_hit  | tup_returned | tup_fetched | tup_inserted | tup_updated | tup_deleted | conflicts | temp_files | temp_bytes | deadlocks | blk_read_time | blk_write_time |          stats_reset          
-------+-----------+-------------+-------------+---------------+-----------+------------+--------------+-------------+--------------+-------------+-------------+-----------+------------+------------+-----------+---------------+----------------+-------------------------------
 12406 | postgres  |           1 |        1891 |             0 |     11368 |      60403 |       787064 |       17110 |            0 |           0 |           0 |         0 |          0 |          0 |         0 |             0 |              0 | 2016-08-04 20:20:17.717462+02
     1 | template1 |           0 |           0 |             0 |         0 |          0 |            0 |           0 |            0 |           0 |           0 |         0 |          0 |          0 |         0 |             0 |              0 | 
 12405 | template0 |           0 |           0 |             0 |         0 |          0 |            0 |           0 |            0 |           0 |           0 |         0 |          0 |          0 |         0 |             0 |              0 | 
 16423 | pgbench   |           0 |   380335100 |             1 | 456904434 | 6119866626 |   3088293119 |   573193257 |     94248135 |   192736716 |           0 |         0 |          1 |  600498176 |         0 |             0 |              0 | 2016-08-05 03:20:41.197959+02
(4 rows)

