 datid |  datname  | numbackends | xact_commit | xact_rollback | blks_read | blks_hit  | tup_returned | tup_fetched | tup_inserted | tup_updated | tup_deleted | conflicts | temp_files | temp_bytes | deadlocks | blk_read_time | blk_write_time |          stats_reset          
-------+-----------+-------------+-------------+---------------+-----------+-----------+--------------+-------------+--------------+-------------+-------------+-----------+------------+------------+-----------+---------------+----------------+-------------------------------
 12406 | postgres  |           1 |         151 |             0 |        93 |      6448 |        59985 |        1877 |            0 |           0 |           0 |         0 |          0 |          0 |         0 |             0 |              0 | 2016-08-22 01:43:41.019558+02
 16384 | pgbench   |           0 |    64095541 |             0 |    253460 | 323905072 |    102778412 |    74879674 |      6725817 |    11176519 |           0 |         0 |          0 |          0 |         0 |             0 |              0 | 2016-08-22 01:43:41.286855+02
     1 | template1 |           0 |           0 |             0 |         0 |         0 |            0 |           0 |            0 |           0 |           0 |         0 |          0 |          0 |         0 |             0 |              0 | 
 12405 | template0 |           0 |           0 |             0 |         0 |         0 |            0 |           0 |            0 |           0 |           0 |         0 |          0 |          0 |         0 |             0 |              0 | 
(4 rows)

