 checkpoints_timed | checkpoints_req | checkpoint_write_time | checkpoint_sync_time | buffers_checkpoint | buffers_clean | maxwritten_clean | buffers_backend | buffers_backend_fsync | buffers_alloc |          stats_reset          
-------------------+-----------------+-----------------------+----------------------+--------------------+---------------+------------------+-----------------+-----------------------+---------------+-------------------------------
                65 |              56 |              16613110 |                 3775 |            2866712 |      16362506 |           149661 |       111488354 |                     0 |     788678608 | 2016-08-02 01:22:09.171408+02
(1 row)

