starting vacuum...end.
transaction type: <builtin: TPC-B (sort of)>
scaling factor: 1500
query mode: simple
number of clients: 1
number of threads: 1
duration: 1800 s
number of transactions actually processed: 2189810
latency average: 0.822 ms
tps = 1216.560215 (including connections establishing)
tps = 1216.561098 (excluding connections establishing)
