starting vacuum...end.
transaction type: <builtin: TPC-B (sort of)>
scaling factor: 1500
query mode: simple
number of clients: 4
number of threads: 1
duration: 1800 s
number of transactions actually processed: 5797336
latency average: 1.242 ms
tps = 3220.734260 (including connections establishing)
tps = 3220.736149 (excluding connections establishing)
