 checkpoints_timed | checkpoints_req | checkpoint_write_time | checkpoint_sync_time | buffers_checkpoint | buffers_clean | maxwritten_clean | buffers_backend | buffers_backend_fsync | buffers_alloc |          stats_reset          
-------------------+-----------------+-----------------------+----------------------+--------------------+---------------+------------------+-----------------+-----------------------+---------------+-------------------------------
                76 |              59 |              18142095 |                 2461 |            3006866 |      18581708 |           172240 |       123111327 |                     0 |     815174517 | 2016-08-23 00:07:08.045095+02
(1 row)

