starting vacuum...end.
transaction type: <builtin: select only>
scaling factor: 1500
query mode: simple
number of clients: 1
number of threads: 1
duration: 900 s
number of transactions actually processed: 2729114
latency average: 0.330 ms
tps = 3032.345577 (including connections establishing)
tps = 3032.350078 (excluding connections establishing)
