starting vacuum...end.
transaction type: <builtin: TPC-B (sort of)>
scaling factor: 300
query mode: simple
number of clients: 4
number of threads: 1
duration: 1800 s
number of transactions actually processed: 9872867
latency average: 0.729 ms
tps = 5484.924344 (including connections establishing)
tps = 5484.927463 (excluding connections establishing)
