 datid |  datname  | numbackends | xact_commit | xact_rollback | blks_read | blks_hit  | tup_returned | tup_fetched | tup_inserted | tup_updated | tup_deleted | conflicts | temp_files | temp_bytes | deadlocks | blk_read_time | blk_write_time |          stats_reset          
-------+-----------+-------------+-------------+---------------+-----------+-----------+--------------+-------------+--------------+-------------+-------------+-----------+------------+------------+-----------+---------------+----------------+-------------------------------
 12406 | postgres  |           1 |         151 |             0 |        93 |      6448 |        59985 |        1877 |            0 |           0 |           0 |         0 |          0 |          0 |         0 |             0 |              0 | 2016-07-11 17:39:41.225333+02
 16384 | pgbench   |           0 |    70833110 |             0 |    255840 | 352795177 |    104195865 |    82791997 |      7085779 |    12256409 |           0 |         0 |          0 |          0 |         0 |             0 |              0 | 2016-07-11 17:39:41.476043+02
     1 | template1 |           0 |           0 |             0 |         0 |         0 |            0 |           0 |            0 |           0 |           0 |         0 |          0 |          0 |         0 |             0 |              0 | 
 12405 | template0 |           0 |           0 |             0 |         0 |         0 |            0 |           0 |            0 |           0 |           0 |         0 |          0 |          0 |         0 |             0 |              0 | 
(4 rows)

