 checkpoints_timed | checkpoints_req | checkpoint_write_time | checkpoint_sync_time | buffers_checkpoint | buffers_clean | maxwritten_clean | buffers_backend | buffers_backend_fsync | buffers_alloc |          stats_reset          
-------------------+-----------------+-----------------------+----------------------+--------------------+---------------+------------------+-----------------+-----------------------+---------------+-------------------------------
                 7 |               8 |               1446218 |                 2747 |             437435 |         32208 |              319 |          253965 |                     0 |        168156 | 2016-07-11 17:37:30.791905+02
(1 row)

