 checkpoints_timed | checkpoints_req | checkpoint_write_time | checkpoint_sync_time | buffers_checkpoint | buffers_clean | maxwritten_clean | buffers_backend | buffers_backend_fsync | buffers_alloc |          stats_reset          
-------------------+-----------------+-----------------------+----------------------+--------------------+---------------+------------------+-----------------+-----------------------+---------------+-------------------------------
                43 |              33 |              10106489 |                 2306 |            2103516 |       5795350 |            50815 |        36947158 |                     0 |     292253930 | 2016-08-13 17:56:54.093305+02
(1 row)

