 checkpoints_timed | checkpoints_req | checkpoint_write_time | checkpoint_sync_time | buffers_checkpoint | buffers_clean | maxwritten_clean | buffers_backend | buffers_backend_fsync | buffers_alloc |          stats_reset          
-------------------+-----------------+-----------------------+----------------------+--------------------+---------------+------------------+-----------------+-----------------------+---------------+-------------------------------
                79 |              62 |              18786180 |                 4886 |            3136177 |      20440676 |           192314 |       125157802 |                     0 |     764447412 | 2016-07-13 17:24:46.660707+02
(1 row)

