starting vacuum...end.
transaction type: <builtin: TPC-B (sort of)>
scaling factor: 300
query mode: simple
number of clients: 1
number of threads: 1
duration: 1800 s
number of transactions actually processed: 3597902
latency average: 0.500 ms
tps = 1998.833918 (including connections establishing)
tps = 1998.835084 (excluding connections establishing)
