starting vacuum...end.
transaction type: <builtin: select only>
scaling factor: 30
query mode: simple
number of clients: 4
number of threads: 1
duration: 900 s
number of transactions actually processed: 50406799
latency average: 0.071 ms
tps = 56007.543803 (including connections establishing)
tps = 56007.602658 (excluding connections establishing)
