 checkpoints_timed | checkpoints_req | checkpoint_write_time | checkpoint_sync_time | buffers_checkpoint | buffers_clean | maxwritten_clean | buffers_backend | buffers_backend_fsync | buffers_alloc |          stats_reset          
-------------------+-----------------+-----------------------+----------------------+--------------------+---------------+------------------+-----------------+-----------------------+---------------+-------------------------------
                34 |              28 |               7983224 |                 1978 |            1923871 |       2343470 |            21555 |        13470704 |                     0 |     131579650 | 2016-08-23 00:07:08.045095+02
(1 row)

