starting vacuum...end.
transaction type: <builtin: TPC-B (sort of)>
scaling factor: 1500
query mode: simple
number of clients: 16
number of threads: 1
duration: 1800 s
number of transactions actually processed: 12149129
latency average: 2.371 ms
tps = 6749.382402 (including connections establishing)
tps = 6749.386134 (excluding connections establishing)
