starting vacuum...end.
transaction type: <builtin: TPC-B (sort of)>
scaling factor: 1500
query mode: simple
number of clients: 4
number of threads: 1
duration: 1800 s
number of transactions actually processed: 5619931
latency average: 1.281 ms
tps = 3122.178989 (including connections establishing)
tps = 3122.180823 (excluding connections establishing)
