 datid |  datname  | numbackends | xact_commit | xact_rollback | blks_read | blks_hit  | tup_returned | tup_fetched | tup_inserted | tup_updated | tup_deleted | conflicts | temp_files | temp_bytes | deadlocks | blk_read_time | blk_write_time |          stats_reset          
-------+-----------+-------------+-------------+---------------+-----------+-----------+--------------+-------------+--------------+-------------+-------------+-----------+------------+------------+-----------+---------------+----------------+-------------------------------
 12406 | postgres  |           1 |        2517 |             0 |     18472 |     73921 |       979252 |       22555 |            0 |           0 |           0 |         0 |          0 |          0 |         0 |             0 |              0 | 2016-08-17 19:27:19.619593+02
     1 | template1 |           0 |         192 |             0 |       957 |      3993 |        17418 |        1802 |            0 |           0 |           0 |         0 |          0 |          0 |         0 |             0 |              0 | 2016-08-18 12:02:34.258873+02
 12405 | template0 |           0 |         192 |             0 |       916 |      4034 |        17418 |        1802 |            0 |           0 |           0 |         0 |          0 |          0 |         0 |             0 |              0 | 2016-08-18 12:03:04.28001+02
 16462 | pgbench   |           0 |    55398910 |             3 | 109679763 | 574175947 |    333162511 |   102415268 |    165671522 |    46965692 |           0 |         0 |          3 | 3002441728 |         0 |             0 |              0 | 2016-08-18 09:28:50.109064+02
(4 rows)

