starting vacuum...end.
transaction type: <builtin: select only>
scaling factor: 30
query mode: simple
number of clients: 1
number of threads: 1
duration: 900 s
number of transactions actually processed: 16754779
latency average: 0.054 ms
tps = 18616.418381 (including connections establishing)
tps = 18616.440059 (excluding connections establishing)
