starting vacuum...end.
transaction type: <builtin: select only>
scaling factor: 30
query mode: simple
number of clients: 16
number of threads: 1
duration: 900 s
number of transactions actually processed: 50298558
latency average: 0.286 ms
tps = 55885.898399 (including connections establishing)
tps = 55885.950162 (excluding connections establishing)
