 datid |  datname  | numbackends | xact_commit | xact_rollback | blks_read |  blks_hit  | tup_returned | tup_fetched | tup_inserted | tup_updated | tup_deleted | conflicts | temp_files | temp_bytes | deadlocks | blk_read_time | blk_write_time |          stats_reset          
-------+-----------+-------------+-------------+---------------+-----------+------------+--------------+-------------+--------------+-------------+-------------+-----------+------------+------------+-----------+---------------+----------------+-------------------------------
 12406 | postgres  |           1 |        1923 |             0 |     12126 |      60828 |       800865 |       17371 |            0 |           0 |           0 |         0 |          0 |          0 |         0 |             0 |              0 | 2016-08-14 16:08:14.338512+02
     1 | template1 |           0 |           0 |             0 |         0 |          0 |            0 |           0 |            0 |           0 |           0 |         0 |          0 |          0 |         0 |             0 |              0 | 
 12405 | template0 |           0 |           0 |             0 |         0 |          0 |            0 |           0 |            0 |           0 |           0 |         0 |          0 |          0 |         0 |             0 |              0 | 
 16423 | pgbench   |           0 |   429121533 |             0 | 515280761 | 7061014452 |   3644619866 |   629639702 |     96800440 |   200393655 |           0 |         0 |          1 |  600498176 |         0 |             0 |              0 | 2016-08-14 23:08:38.498381+02
(4 rows)

