 checkpoints_timed | checkpoints_req | checkpoint_write_time | checkpoint_sync_time | buffers_checkpoint | buffers_clean | maxwritten_clean | buffers_backend | buffers_backend_fsync | buffers_alloc |          stats_reset          
-------------------+-----------------+-----------------------+----------------------+--------------------+---------------+------------------+-----------------+-----------------------+---------------+-------------------------------
                50 |              40 |              12277314 |                 2168 |            2443483 |       8990457 |            78985 |        59997278 |                     0 |     511574793 | 2016-08-14 16:07:11.454932+02
(1 row)

