 checkpoints_timed | checkpoints_req | checkpoint_write_time | checkpoint_sync_time | buffers_checkpoint | buffers_clean | maxwritten_clean | buffers_backend | buffers_backend_fsync | buffers_alloc |          stats_reset          
-------------------+-----------------+-----------------------+----------------------+--------------------+---------------+------------------+-----------------+-----------------------+---------------+-------------------------------
                 0 |               2 |                     3 |                    0 |                  3 |             0 |                0 |          131080 |                     0 |          2413 | 2016-08-04 20:19:15.131897+02
(1 row)

