 checkpoints_timed | checkpoints_req | checkpoint_write_time | checkpoint_sync_time | buffers_checkpoint | buffers_clean | maxwritten_clean | buffers_backend | buffers_backend_fsync | buffers_alloc |          stats_reset          
-------------------+-----------------+-----------------------+----------------------+--------------------+---------------+------------------+-----------------+-----------------------+---------------+-------------------------------
                31 |              25 |               7217044 |                 2403 |            1786015 |       1086146 |            10708 |         4515396 |                     0 |      68361536 | 2016-07-24 04:47:51.896051+02
(1 row)

