 checkpoints_timed | checkpoints_req | checkpoint_write_time | checkpoint_sync_time | buffers_checkpoint | buffers_clean | maxwritten_clean | buffers_backend | buffers_backend_fsync | buffers_alloc |          stats_reset          
-------------------+-----------------+-----------------------+----------------------+--------------------+---------------+------------------+-----------------+-----------------------+---------------+-------------------------------
                74 |              62 |              18787315 |                 3950 |            3125304 |      20160040 |           185485 |       134770614 |                     0 |     946493714 | 2016-08-16 21:10:36.713062+02
(1 row)

