 checkpoints_timed | checkpoints_req | checkpoint_write_time | checkpoint_sync_time | buffers_checkpoint | buffers_clean | maxwritten_clean | buffers_backend | buffers_backend_fsync | buffers_alloc |          stats_reset          
-------------------+-----------------+-----------------------+----------------------+--------------------+---------------+------------------+-----------------+-----------------------+---------------+-------------------------------
                16 |              12 |               3609132 |                 2236 |             932976 |        140344 |             1364 |          468902 |                     0 |        381973 | 2016-07-13 17:24:46.660707+02
(1 row)

