 checkpoints_timed | checkpoints_req | checkpoint_write_time | checkpoint_sync_time | buffers_checkpoint | buffers_clean | maxwritten_clean | buffers_backend | buffers_backend_fsync | buffers_alloc |          stats_reset          
-------------------+-----------------+-----------------------+----------------------+--------------------+---------------+------------------+-----------------+-----------------------+---------------+-------------------------------
                14 |              11 |               2889314 |                 1779 |             792037 |        103676 |             1003 |          387790 |                     0 |        300801 | 2016-07-13 17:24:46.660707+02
(1 row)

