 checkpoints_timed | checkpoints_req | checkpoint_write_time | checkpoint_sync_time | buffers_checkpoint | buffers_clean | maxwritten_clean | buffers_backend | buffers_backend_fsync | buffers_alloc |          stats_reset          
-------------------+-----------------+-----------------------+----------------------+--------------------+---------------+------------------+-----------------+-----------------------+---------------+-------------------------------
                72 |              59 |              18058133 |                 3705 |            3059650 |      18874424 |           174050 |       126570991 |                     0 |     862504379 | 2016-08-04 20:19:15.131897+02
(1 row)

