 datid |  datname  | numbackends | xact_commit | xact_rollback | blks_read |  blks_hit  | tup_returned | tup_fetched | tup_inserted | tup_updated | tup_deleted | conflicts | temp_files | temp_bytes | deadlocks | blk_read_time | blk_write_time |          stats_reset          
-------+-----------+-------------+-------------+---------------+-----------+------------+--------------+-------------+--------------+-------------+-------------+-----------+------------+------------+-----------+---------------+----------------+-------------------------------
 12406 | postgres  |           1 |        1993 |             0 |     12869 |      62658 |       831401 |       17926 |            0 |           0 |           0 |         0 |          0 |          0 |         0 |             0 |              0 | 2016-08-03 23:00:37.244422+02
     1 | template1 |           0 |           0 |             0 |         0 |          0 |            0 |           0 |            0 |           0 |           0 |         0 |          0 |          0 |         0 |             0 |              0 | 
 12405 | template0 |           0 |           0 |             0 |         0 |          0 |            0 |           0 |            0 |           0 |           0 |         0 |          0 |          0 |         0 |             0 |              0 | 
 16423 | pgbench   |           1 |   452350480 |             2 | 543200814 | 7237489972 |   3664186869 |   683266896 |    106924507 |   230766116 |           0 |         0 |          1 |  600498176 |         0 |             0 |              0 | 2016-08-04 06:01:00.49526+02
(4 rows)

