 datid |  datname  | numbackends | xact_commit | xact_rollback | blks_read |  blks_hit  | tup_returned | tup_fetched | tup_inserted | tup_updated | tup_deleted | conflicts | temp_files | temp_bytes | deadlocks | blk_read_time | blk_write_time |          stats_reset          
-------+-----------+-------------+-------------+---------------+-----------+------------+--------------+-------------+--------------+-------------+-------------+-----------+------------+------------+-----------+---------------+----------------+-------------------------------
 12406 | postgres  |           1 |        1925 |             0 |     11917 |      61106 |       801843 |       17382 |            0 |           0 |           0 |         0 |          0 |          0 |         0 |             0 |              0 | 2016-08-03 23:00:37.244422+02
     1 | template1 |           0 |           0 |             0 |         0 |          0 |            0 |           0 |            0 |           0 |           0 |         0 |          0 |          0 |         0 |             0 |              0 | 
 12405 | template0 |           0 |           0 |             0 |         0 |          0 |            0 |           0 |            0 |           0 |           0 |         0 |          0 |          0 |         0 |             0 |              0 | 
 16423 | pgbench   |           0 |   439798865 |             2 | 527691668 | 6310789489 |   3106124975 |   633033206 |     94373179 |   193111850 |           0 |         0 |          1 |  600498176 |         0 |             0 |              0 | 2016-08-04 06:01:00.49526+02
(4 rows)

