starting vacuum...end.
transaction type: <builtin: select only>
scaling factor: 300
query mode: simple
number of clients: 4
number of threads: 1
duration: 900 s
number of transactions actually processed: 40453650
latency average: 0.089 ms
tps = 44948.493008 (including connections establishing)
tps = 44948.548170 (excluding connections establishing)
