 datid |  datname  | numbackends | xact_commit | xact_rollback | blks_read |  blks_hit  | tup_returned | tup_fetched | tup_inserted | tup_updated | tup_deleted | conflicts | temp_files | temp_bytes | deadlocks | blk_read_time | blk_write_time |          stats_reset          
-------+-----------+-------------+-------------+---------------+-----------+------------+--------------+-------------+--------------+-------------+-------------+-----------+------------+------------+-----------+---------------+----------------+-------------------------------
 12406 | postgres  |           1 |         765 |             0 |       225 |      29395 |       315903 |        7294 |            0 |           0 |           0 |         0 |          0 |          0 |         0 |             0 |              0 | 2016-07-10 00:36:55.78696+02
 16384 | pgbench   |           0 |   372041925 |             0 |    726745 | 3390977849 |   1420932949 |   580724165 |     72655313 |   208967471 |           0 |         0 |          0 |          0 |         0 |             0 |              0 | 2016-07-10 00:36:56.041599+02
     1 | template1 |           0 |           0 |             0 |         0 |          0 |            0 |           0 |            0 |           0 |           0 |         0 |          0 |          0 |         0 |             0 |              0 | 
 12405 | template0 |           0 |           0 |             0 |         0 |          0 |            0 |           0 |            0 |           0 |           0 |         0 |          0 |          0 |         0 |             0 |              0 | 
(4 rows)

