starting vacuum...end.
transaction type: <builtin: TPC-B (sort of)>
scaling factor: 30
query mode: simple
number of clients: 1
number of threads: 1
duration: 1800 s
number of transactions actually processed: 3811891
latency average: 0.472 ms
tps = 2117.716863 (including connections establishing)
tps = 2117.718215 (excluding connections establishing)
