 datid |  datname  | numbackends | xact_commit | xact_rollback | blks_read |  blks_hit  | tup_returned | tup_fetched | tup_inserted | tup_updated | tup_deleted | conflicts | temp_files | temp_bytes | deadlocks | blk_read_time | blk_write_time |          stats_reset          
-------+-----------+-------------+-------------+---------------+-----------+------------+--------------+-------------+--------------+-------------+-------------+-----------+------------+------------+-----------+---------------+----------------+-------------------------------
 12406 | postgres  |           1 |        2505 |             0 |     19024 |      75812 |      1041103 |       22580 |            0 |           0 |           0 |         0 |          0 |          0 |         0 |             0 |              0 | 2016-08-16 21:11:38.620657+02
     1 | template1 |           0 |           0 |             0 |         0 |          0 |            0 |           0 |            0 |           0 |           0 |         0 |          0 |          0 |         0 |             0 |              0 | 
 12405 | template0 |           0 |           0 |             0 |         0 |          0 |            0 |           0 |            0 |           0 |           0 |         0 |          0 |          0 |         0 |             0 |              0 | 
 16462 | pgbench   |           0 |   112309291 |             0 | 214658916 | 1057339895 |    522206193 |   179022849 |    172233239 |    66651191 |           0 |         0 |          3 | 3002441728 |         0 |             0 |              0 | 2016-08-17 11:13:06.068799+02
(4 rows)

