 checkpoints_timed | checkpoints_req | checkpoint_write_time | checkpoint_sync_time | buffers_checkpoint | buffers_clean | maxwritten_clean | buffers_backend | buffers_backend_fsync | buffers_alloc |          stats_reset          
-------------------+-----------------+-----------------------+----------------------+--------------------+---------------+------------------+-----------------+-----------------------+---------------+-------------------------------
                65 |              55 |              16614292 |                 3833 |            2885123 |      16332165 |           149426 |       111142145 |                     0 |     812784611 | 2016-08-16 21:10:36.713062+02
(1 row)

