 checkpoints_timed | checkpoints_req | checkpoint_write_time | checkpoint_sync_time | buffers_checkpoint | buffers_clean | maxwritten_clean | buffers_backend | buffers_backend_fsync | buffers_alloc |          stats_reset          
-------------------+-----------------+-----------------------+----------------------+--------------------+---------------+------------------+-----------------+-----------------------+---------------+-------------------------------
                64 |              55 |              16614292 |                 3833 |            2885114 |      15927812 |           146926 |       108942917 |                     0 |     752610968 | 2016-08-16 21:10:36.713062+02
(1 row)

