 checkpoints_timed | checkpoints_req | checkpoint_write_time | checkpoint_sync_time | buffers_checkpoint | buffers_clean | maxwritten_clean | buffers_backend | buffers_backend_fsync | buffers_alloc |          stats_reset          
-------------------+-----------------+-----------------------+----------------------+--------------------+---------------+------------------+-----------------+-----------------------+---------------+-------------------------------
                64 |              51 |              15168172 |                 2609 |            2690449 |      13367681 |           121954 |        95776765 |                     0 |     622204221 | 2016-08-13 17:56:54.093305+02
(1 row)

