starting vacuum...end.
transaction type: <builtin: TPC-B (sort of)>
scaling factor: 30
query mode: simple
number of clients: 1
number of threads: 1
duration: 1800 s
number of transactions actually processed: 3767465
latency average: 0.478 ms
tps = 2093.035668 (including connections establishing)
tps = 2093.037320 (excluding connections establishing)
