 datid |  datname  | numbackends | xact_commit | xact_rollback | blks_read | blks_hit  | tup_returned | tup_fetched | tup_inserted | tup_updated | tup_deleted | conflicts | temp_files | temp_bytes | deadlocks | blk_read_time | blk_write_time |          stats_reset          
-------+-----------+-------------+-------------+---------------+-----------+-----------+--------------+-------------+--------------+-------------+-------------+-----------+------------+------------+-----------+---------------+----------------+-------------------------------
 12406 | postgres  |           1 |         189 |             0 |        93 |      7917 |        74873 |        2256 |            0 |           0 |           0 |         0 |          0 |          0 |         0 |             0 |              0 | 2016-08-02 01:23:11.164764+02
 16384 | pgbench   |           0 |   108649411 |             0 |    253706 | 492453395 |    134071733 |   119665509 |      6767895 |    11302759 |           0 |         0 |          0 |          0 |         0 |             0 |              0 | 2016-08-02 01:23:11.421603+02
     1 | template1 |           0 |           0 |             0 |         0 |         0 |            0 |           0 |            0 |           0 |           0 |         0 |          0 |          0 |         0 |             0 |              0 | 
 12405 | template0 |           0 |           0 |             0 |         0 |         0 |            0 |           0 |            0 |           0 |           0 |         0 |          0 |          0 |         0 |             0 |              0 | 
(4 rows)

