 datid |  datname  | numbackends | xact_commit | xact_rollback | blks_read |  blks_hit  | tup_returned | tup_fetched | tup_inserted | tup_updated | tup_deleted | conflicts | temp_files | temp_bytes | deadlocks | blk_read_time | blk_write_time |          stats_reset          
-------+-----------+-------------+-------------+---------------+-----------+------------+--------------+-------------+--------------+-------------+-------------+-----------+------------+------------+-----------+---------------+----------------+-------------------------------
 12406 | postgres  |           1 |         571 |             0 |       195 |      22021 |       237660 |        5462 |            0 |           0 |           0 |         0 |          0 |          0 |         0 |             0 |              0 | 2016-08-12 17:38:52.705825+02
 16384 | pgbench   |           0 |   264055366 |             0 |    542211 | 2317184763 |    980271700 |   400360639 |     48503385 |   136510931 |           0 |         0 |          0 |          0 |         0 |             0 |              0 | 2016-08-12 17:38:52.966903+02
     1 | template1 |           0 |           0 |             0 |         0 |          0 |            0 |           0 |            0 |           0 |           0 |         0 |          0 |          0 |         0 |             0 |              0 | 
 12405 | template0 |           0 |           0 |             0 |         0 |          0 |            0 |           0 |            0 |           0 |           0 |         0 |          0 |          0 |         0 |             0 |              0 | 
(4 rows)

