 checkpoints_timed | checkpoints_req | checkpoint_write_time | checkpoint_sync_time | buffers_checkpoint | buffers_clean | maxwritten_clean | buffers_backend | buffers_backend_fsync | buffers_alloc |          stats_reset          
-------------------+-----------------+-----------------------+----------------------+--------------------+---------------+------------------+-----------------+-----------------------+---------------+-------------------------------
                42 |              34 |              10098826 |                14179 |            2183301 |       5894009 |            52200 |        38789664 |                     0 |     311904853 | 2016-07-10 00:36:27.338796+02
(1 row)

