 checkpoints_timed | checkpoints_req | checkpoint_write_time | checkpoint_sync_time | buffers_checkpoint | buffers_clean | maxwritten_clean | buffers_backend | buffers_backend_fsync | buffers_alloc |          stats_reset          
-------------------+-----------------+-----------------------+----------------------+--------------------+---------------+------------------+-----------------+-----------------------+---------------+-------------------------------
                48 |              40 |              12275176 |                 4692 |            2452709 |       9055518 |            80192 |        63653059 |                     0 |     563632183 | 2016-07-15 11:13:12.598738+02
(1 row)

