 datid |  datname  | numbackends | xact_commit | xact_rollback | blks_read |  blks_hit  | tup_returned | tup_fetched | tup_inserted | tup_updated | tup_deleted | conflicts | temp_files | temp_bytes | deadlocks | blk_read_time | blk_write_time |          stats_reset          
-------+-----------+-------------+-------------+---------------+-----------+------------+--------------+-------------+--------------+-------------+-------------+-----------+------------+------------+-----------+---------------+----------------+-------------------------------
 12406 | postgres  |           1 |        2519 |             0 |     22840 |      60363 |      1062118 |       15590 |            0 |           0 |           0 |         0 |          0 |          0 |         0 |             0 |              0 | 2016-07-16 13:38:09.818172+02
 16426 | pgbench   |           0 |    96108750 |             0 | 187561322 | 2758006773 |   1006324651 |   384719799 |    246122157 |   288319433 |           0 |         0 |          3 | 3002441728 |         0 |             0 |              0 | 2016-07-17 01:39:04.02896+02
     1 | template1 |           0 |        1722 |             0 |     22011 |      33259 |       688634 |       10551 |            0 |           0 |           0 |         0 |          0 |          0 |         0 |             0 |              0 | 2016-07-16 20:00:30.371903+02
 12405 | template0 |           0 |        1726 |             0 |     22055 |      34174 |       691087 |       10998 |            0 |           0 |           0 |         0 |          0 |          0 |         0 |             0 |              0 | 2016-07-16 20:01:00.410517+02
(4 rows)

