 checkpoints_timed | checkpoints_req | checkpoint_write_time | checkpoint_sync_time | buffers_checkpoint | buffers_clean | maxwritten_clean | buffers_backend | buffers_backend_fsync | buffers_alloc |          stats_reset          
-------------------+-----------------+-----------------------+----------------------+--------------------+---------------+------------------+-----------------+-----------------------+---------------+-------------------------------
                39 |              30 |               8705013 |                 3146 |            2071285 |       3718694 |            31796 |        24679744 |                     0 |     226329898 | 2016-08-23 23:41:15.461504+02
(1 row)

