 datid |  datname  | numbackends | xact_commit | xact_rollback | blks_read |  blks_hit  | tup_returned | tup_fetched | tup_inserted | tup_updated | tup_deleted | conflicts | temp_files | temp_bytes | deadlocks | blk_read_time | blk_write_time |          stats_reset          
-------+-----------+-------------+-------------+---------------+-----------+------------+--------------+-------------+--------------+-------------+-------------+-----------+------------+------------+-----------+---------------+----------------+-------------------------------
 12406 | postgres  |           1 |        1567 |             0 |      7442 |      52124 |       652639 |       14223 |            0 |           0 |           0 |         0 |          0 |          0 |         0 |             0 |              0 | 2016-08-01 03:46:36.343338+02
     1 | template1 |           0 |           0 |             0 |         0 |          0 |            0 |           0 |            0 |           0 |           0 |         0 |          0 |          0 |         0 |             0 |              0 | 
 12405 | template0 |           0 |           0 |             0 |         0 |          0 |            0 |           0 |            0 |           0 |           0 |         0 |          0 |          0 |         0 |             0 |              0 | 
 16423 | pgbench   |           2 |   239268579 |             1 | 287835616 | 4002636103 |   2035239456 |   358270463 |     69646434 |   118930659 |           0 |         0 |          1 |  600498176 |         0 |             0 |              0 | 2016-08-01 10:46:59.143321+02
(4 rows)

