 checkpoints_timed | checkpoints_req | checkpoint_write_time | checkpoint_sync_time | buffers_checkpoint | buffers_clean | maxwritten_clean | buffers_backend | buffers_backend_fsync | buffers_alloc |          stats_reset          
-------------------+-----------------+-----------------------+----------------------+--------------------+---------------+------------------+-----------------+-----------------------+---------------+-------------------------------
                38 |              30 |               8659482 |                 2966 |            2032464 |       3759653 |            32376 |        25402173 |                     0 |     220909269 | 2016-08-01 03:45:27.672109+02
(1 row)

